\relax 
\providecommand\hyper@newdestlabel[2]{}
\@writefile{toc}{\contentsline {chapter}{\numberline {2}Revisão Bibliográfica}{3}{chapter.2}\protected@file@percent }
\@writefile{lof}{\addvspace {10\p@ }}
\@writefile{lot}{\addvspace {10\p@ }}
\newlabel{chap-LR}{{2}{3}{Revisão Bibliográfica}{chapter.2}{}}
\@writefile{toc}{\contentsline {section}{\numberline {2.1}Modelos Discretos para Dinâmica Celular}{3}{section.2.1}\protected@file@percent }
\@writefile{toc}{\contentsline {subsection}{\numberline {2.1.1}Partículas Brownianas Passivas}{4}{subsection.2.1.1}\protected@file@percent }
\@writefile{toc}{\contentsline {subsubsection}{Equação de Langevin: Processo de Ornstein-Uhlenbeck}{5}{section*.3}\protected@file@percent }
\newlabel{langevin_browniano}{{2.2}{5}{Equação de Langevin: Processo de Ornstein-Uhlenbeck}{equation.2.1.2}{}}
\newlabel{langevin_mean}{{2.3}{5}{Equação de Langevin: Processo de Ornstein-Uhlenbeck}{equation.2.1.3}{}}
\newlabel{langevin_variance}{{2.4}{5}{Equação de Langevin: Processo de Ornstein-Uhlenbeck}{equation.2.1.4}{}}
\newlabel{langevin_browniano2}{{2.6}{6}{Equação de Langevin: Processo de Ornstein-Uhlenbeck}{equation.2.1.6}{}}
\newlabel{langevin_mean_unit}{{2.7}{6}{Equação de Langevin: Processo de Ornstein-Uhlenbeck}{equation.2.1.7}{}}
\newlabel{langevin_variance_unit}{{2.8}{6}{Equação de Langevin: Processo de Ornstein-Uhlenbeck}{equation.2.1.8}{}}
\newlabel{langevin_browniano3}{{2.9}{6}{Equação de Langevin: Processo de Ornstein-Uhlenbeck}{equation.2.1.9}{}}
\newlabel{langevin_browniano4}{{2.10}{6}{Equação de Langevin: Processo de Ornstein-Uhlenbeck}{equation.2.1.10}{}}
\@writefile{lof}{\contentsline {figure}{\numberline {2.1}{\ignorespaces Uma partícula Browniana com massa $m$ imersa em um fluido.\relax }}{7}{figure.caption.4}\protected@file@percent }
\providecommand*\caption@xref[2]{\@setref\relax\@undefined{#1}}
\newlabel{brownian-particle1}{{2.1}{7}{Uma partícula Browniana com massa $m$ imersa em um fluido.\relax }{figure.caption.4}{}}
\@writefile{toc}{\contentsline {subsubsection}{Difusão de uma Partícula Browniana: Equação de Fürth }{7}{section*.5}\protected@file@percent }
\newlabel{msd_einstein}{{2.11}{7}{Difusão de uma Partícula Browniana: Equação de Fürth}{equation.2.1.11}{}}
\newlabel{mean_brownian}{{2.12}{7}{Difusão de uma Partícula Browniana: Equação de Fürth}{equation.2.1.12}{}}
\newlabel{msd_Ornstein}{{2.13}{7}{Difusão de uma Partícula Browniana: Equação de Fürth}{equation.2.1.13}{}}
\newlabel{msd_Ornstein_short}{{2.14}{7}{Difusão de uma Partícula Browniana: Equação de Fürth}{equation.2.1.14}{}}
\newlabel{msd_Ornstein_long}{{2.15}{8}{Difusão de uma Partícula Browniana: Equação de Fürth}{equation.2.1.15}{}}
\newlabel{difusion}{{2.16}{8}{Difusão de uma Partícula Browniana: Equação de Fürth}{equation.2.1.16}{}}
\newlabel{msd_Ornstein2}{{2.17}{8}{Difusão de uma Partícula Browniana: Equação de Fürth}{equation.2.1.17}{}}
\@writefile{lof}{\contentsline {figure}{\numberline {2.2}{\ignorespaces Imagens adaptadas do artigo \blx@tocontentsinit {0}\cite {li2008persistent}. (a) Três típicas trajetórias de uma célula Dictyostelium durante 10 horas. (b) O deslocamento quadrático médio de uma célula Dictyostelium (em escala log).\relax }}{8}{figure.caption.6}\protected@file@percent }
\newlabel{msd_cell_experiment}{{2.2}{8}{Imagens adaptadas do artigo \cite {li2008persistent}. (a) Três típicas trajetórias de uma célula Dictyostelium durante 10 horas. (b) O deslocamento quadrático médio de uma célula Dictyostelium (em escala log).\relax }{figure.caption.6}{}}
\newlabel{langevin_browniano5}{{2.18}{9}{Difusão de uma Partícula Browniana: Equação de Fürth}{equation.2.1.18}{}}
\newlabel{msd_overdamped}{{2.19}{9}{Difusão de uma Partícula Browniana: Equação de Fürth}{equation.2.1.19}{}}
\@writefile{toc}{\contentsline {subsubsection}{Difusão de um Sistema de Partículas Brownianas}{9}{section*.7}\protected@file@percent }
\newlabel{center_mass_pos}{{2.20}{9}{Difusão de um Sistema de Partículas Brownianas}{equation.2.1.20}{}}
\newlabel{center_mass_vel}{{2.21}{9}{Difusão de um Sistema de Partículas Brownianas}{equation.2.1.21}{}}
\newlabel{langevin_center1}{{2.22}{9}{Difusão de um Sistema de Partículas Brownianas}{equation.2.1.22}{}}
\newlabel{langevin_center2}{{2.23}{10}{Difusão de um Sistema de Partículas Brownianas}{equation.2.1.23}{}}
\newlabel{MSD_center1}{{2.24}{10}{Difusão de um Sistema de Partículas Brownianas}{equation.2.1.24}{}}
\newlabel{MSD_center1}{{2.25}{10}{Difusão de um Sistema de Partículas Brownianas}{equation.2.1.25}{}}
\newlabel{difusion_center_brownian}{{2.26}{10}{Difusão de um Sistema de Partículas Brownianas}{equation.2.1.26}{}}
\@writefile{toc}{\contentsline {subsubsection}{Difusão Angular: Equação de Langevin Angular}{10}{section*.8}\protected@file@percent }
\newlabel{langevin_angle1}{{2.27}{10}{Difusão Angular: Equação de Langevin Angular}{equation.2.1.27}{}}
\newlabel{langevin_angle2}{{2.28}{10}{Difusão Angular: Equação de Langevin Angular}{equation.2.1.28}{}}
\@writefile{lof}{\contentsline {figure}{\numberline {2.3}{\ignorespaces Configuração da orientação da velocidade $\vec  {v}_{i}(t)$ em um dado tempo $t$.\relax }}{11}{figure.caption.9}\protected@file@percent }
\newlabel{brownian-particle2}{{2.3}{11}{Configuração da orientação da velocidade $\vec {v}_{i}(t)$ em um dado tempo $t$.\relax }{figure.caption.9}{}}
\newlabel{langevin_angle3}{{2.29}{11}{Difusão Angular: Equação de Langevin Angular}{equation.2.1.29}{}}
\@writefile{toc}{\contentsline {subsection}{\numberline {2.1.2}Partículas Brownianas Ativas (ABP)}{11}{subsection.2.1.2}\protected@file@percent }
\newlabel{sec-LR-monojam}{{2.1.2}{11}{Partículas Brownianas Ativas (ABP)}{subsection.2.1.2}{}}
\newlabel{energy_temporal}{{2.31}{12}{Partículas Brownianas Ativas (ABP)}{equation.2.1.31}{}}
\newlabel{hamiltoniano}{{2.32}{13}{Partículas Brownianas Ativas (ABP)}{equation.2.1.32}{}}
\newlabel{energy_eq1}{{2.35}{13}{Partículas Brownianas Ativas (ABP)}{equation.2.1.35}{}}
\newlabel{energy_eq2}{{2.36}{13}{Partículas Brownianas Ativas (ABP)}{equation.2.1.36}{}}
\newlabel{active_langevin1}{{2.37}{13}{Partículas Brownianas Ativas (ABP)}{equation.2.1.37}{}}
\newlabel{active_langevin2}{{2.38}{13}{Partículas Brownianas Ativas (ABP)}{equation.2.1.38}{}}
\newlabel{energy_temporal2}{{2.39}{14}{Partículas Brownianas Ativas (ABP)}{equation.2.1.39}{}}
\newlabel{energy_eq3}{{2.39}{14}{Partículas Brownianas Ativas (ABP)}{equation.2.1.39}{}}
\newlabel{active_langevin3}{{2.40}{14}{Partículas Brownianas Ativas (ABP)}{equation.2.1.40}{}}
\newlabel{active_langevin4}{{2.41}{14}{Partículas Brownianas Ativas (ABP)}{equation.2.1.41}{}}
\@writefile{lof}{\contentsline {figure}{\numberline {2.4}{\ignorespaces Partícula Browniana Ativa.\relax }}{15}{figure.caption.10}\protected@file@percent }
\newlabel{active_particle}{{2.4}{15}{Partícula Browniana Ativa.\relax }{figure.caption.10}{}}
\newlabel{langevin_theta1}{{2.42}{15}{Partículas Brownianas Ativas (ABP)}{equation.2.1.42}{}}
\newlabel{active_langevin_overdamped}{{2.43}{15}{Partículas Brownianas Ativas (ABP)}{equation.2.1.43}{}}
\newlabel{langevin_theta2}{{2.44}{16}{Partículas Brownianas Ativas (ABP)}{equation.2.1.44}{}}
\@writefile{toc}{\contentsline {subsubsection}{Difusão de uma Partícula Browniana Ativa}{16}{section*.11}\protected@file@percent }
\newlabel{set_active_langevin_overdamped1}{{2.45}{16}{Difusão de uma Partícula Browniana Ativa}{equation.2.1.45}{}}
\newlabel{set_active_langevin_overdamped2}{{2.46}{16}{Difusão de uma Partícula Browniana Ativa}{equation.2.1.46}{}}
\newlabel{set_active_langevin_angle}{{2.47}{16}{Difusão de uma Partícula Browniana Ativa}{equation.2.1.47}{}}
\newlabel{mean_angle}{{2.48}{16}{Difusão de uma Partícula Browniana Ativa}{equation.2.1.48}{}}
\newlabel{variance_angle}{{2.49}{16}{Difusão de uma Partícula Browniana Ativa}{equation.2.1.49}{}}
\newlabel{mean_r}{{2.50}{16}{Difusão de uma Partícula Browniana Ativa}{equation.2.1.50}{}}
\newlabel{msd_ativo}{{2.51}{17}{Difusão de uma Partícula Browniana Ativa}{equation.2.1.51}{}}
\newlabel{difusão_ativo}{{2.52}{17}{Difusão de uma Partícula Browniana Ativa}{equation.2.1.52}{}}
\newlabel{length_persistence}{{2.53}{17}{Difusão de uma Partícula Browniana Ativa}{equation.2.1.53}{}}
\newlabel{msd_ativo_nothermal}{{2.58}{18}{Difusão de uma Partícula Browniana Ativa}{equation.2.1.58}{}}
\@writefile{lof}{\contentsline {figure}{\numberline {2.5}{\ignorespaces Imagens adaptadas do artigo \blx@tocontentsinit {0}\cite {fodor2018statistical}. (a) Trajetória típica de uma partícula Browniana ativa. (b) Deslocamento quadrático médio de uma partícula Browniana ativa. Parâmetros fixos: $D_{T} = 0,1 s.\mu m^{2}$, $D_{R} = 0,1s^{-1}$.\relax }}{18}{figure.caption.12}\protected@file@percent }
\newlabel{active_brownian_particle}{{2.5}{18}{Imagens adaptadas do artigo \cite {fodor2018statistical}. (a) Trajetória típica de uma partícula Browniana ativa. (b) Deslocamento quadrático médio de uma partícula Browniana ativa. Parâmetros fixos: $D_{T} = 0,1 s.\mu m^{2}$, $D_{R} = 0,1s^{-1}$.\relax }{figure.caption.12}{}}
\@writefile{toc}{\contentsline {subsubsection}{Difusão de um Sistema de Partículas Brownianas Ativas}{18}{section*.13}\protected@file@percent }
\newlabel{langevin_center_ativo1}{{2.59}{18}{Difusão de um Sistema de Partículas Brownianas Ativas}{equation.2.1.59}{}}
\newlabel{langevin_center_ativo2}{{2.60}{19}{Difusão de um Sistema de Partículas Brownianas Ativas}{equation.2.1.60}{}}
\newlabel{difusion_center_ative}{{2.62}{19}{Difusão de um Sistema de Partículas Brownianas Ativas}{equation.2.1.62}{}}
\@writefile{toc}{\contentsline {subsection}{\numberline {2.1.3}Modelos de Partícula Ativa com Alinhamento}{19}{subsection.2.1.3}\protected@file@percent }
\@writefile{toc}{\contentsline {subsubsection}{Modelo de Vicsek}{20}{section*.14}\protected@file@percent }
\newlabel{sec-LR-pbe}{{2.1.3}{20}{Modelo de Vicsek}{section*.14}{}}
\newlabel{vicsek_eq1}{{2.63}{20}{Modelo de Vicsek}{equation.2.1.63}{}}
\newlabel{vicsek_eq2}{{2.64}{20}{Modelo de Vicsek}{equation.2.1.64}{}}
\@writefile{lof}{\contentsline {figure}{\numberline {2.6}{\ignorespaces Partícula ativa do modelo de Vicsek.\relax }}{21}{figure.caption.15}\protected@file@percent }
\newlabel{vicsek_model}{{2.6}{21}{Partícula ativa do modelo de Vicsek.\relax }{figure.caption.15}{}}
\@writefile{lof}{\contentsline {figure}{\numberline {2.7}{\ignorespaces (a) Partículas ativas ordenadas, (b) Partículas ativas desordenadas, (c) Parâmetro de ordem $\left \langle \varphi (t)\right \rangle _{t}$ em função da intensidade do ruído angular $\eta $.\relax }}{21}{figure.caption.16}\protected@file@percent }
\newlabel{parametro_vicsek}{{2.7}{21}{(a) Partículas ativas ordenadas, (b) Partículas ativas desordenadas, (c) Parâmetro de ordem $\left \langle \varphi (t)\right \rangle _{t}$ em função da intensidade do ruído angular $\eta $.\relax }{figure.caption.16}{}}
\@writefile{toc}{\contentsline {subsubsection}{Modelos com Auto-Alinhamento}{22}{section*.17}\protected@file@percent }
\@writefile{lof}{\contentsline {figure}{\numberline {2.8}{\ignorespaces Imagens adaptadas do paper original \blx@tocontentsinit {0}\cite {szabo2006phase}. (a), (b), (c): Imagens de contraste de fase mostrando o comportamento típico das células para três densidades diferentes. (d), (e), (f): Velocidades correspondentes das células. (g) Parâmetro de ordem experimental em função da densidade. \relax }}{22}{figure.caption.18}\protected@file@percent }
\newlabel{szabo_experimento}{{2.8}{22}{Imagens adaptadas do paper original \cite {szabo2006phase}. (a), (b), (c): Imagens de contraste de fase mostrando o comportamento típico das células para três densidades diferentes. (d), (e), (f): Velocidades correspondentes das células. (g) Parâmetro de ordem experimental em função da densidade. \relax }{figure.caption.18}{}}
\newlabel{szabo_e1}{{2.67}{23}{Modelos com Auto-Alinhamento}{equation.2.1.67}{}}
\@writefile{lof}{\contentsline {figure}{\numberline {2.9}{\ignorespaces Partícula ativa introduzida por Szabó.\relax }}{23}{figure.caption.19}\protected@file@percent }
\newlabel{szabo_esquema}{{2.9}{23}{Partícula ativa introduzida por Szabó.\relax }{figure.caption.19}{}}
\newlabel{szabo_e2}{{2.68}{23}{Modelos com Auto-Alinhamento}{equation.2.1.68}{}}
\@writefile{lof}{\contentsline {figure}{\numberline {2.10}{\ignorespaces Figuras retiradas do artigo original \blx@tocontentsinit {0}\cite {szabo2006phase}. Simulações computacionais utilizando condições de contorno periódicas para diferentes densidades: (a) $\rho = 0.8$, (b) $\rho = 0.4$, (c) $\rho = 0.12$. (d) Parâmetro de ordem em função da densidade, $\eta = 0.6$ e $N = 1000$. (e) Parâmetro de ordem em função da intensidade do ruído angular, $\rho = 0.6$ e $N = 1000$. \relax }}{24}{figure.caption.20}\protected@file@percent }
\newlabel{szabo_simulations}{{2.10}{24}{Figuras retiradas do artigo original \cite {szabo2006phase}. Simulações computacionais utilizando condições de contorno periódicas para diferentes densidades: (a) $\rho = 0.8$, (b) $\rho = 0.4$, (c) $\rho = 0.12$. (d) Parâmetro de ordem em função da densidade, $\eta = 0.6$ e $N = 1000$. (e) Parâmetro de ordem em função da intensidade do ruído angular, $\rho = 0.6$ e $N = 1000$. \relax }{figure.caption.20}{}}
\@writefile{lof}{\contentsline {figure}{\numberline {2.11}{\ignorespaces Imagens retiradas do artigo original \blx@tocontentsinit {0}\cite {szabo2006phase}. (a) \textit  {Snapshot} da observação experimental do movimento circular de células confinadas. (b) Simulação computacional das partículas ativas de Szabó confinadas em um quadrado de parades fixas.\relax }}{25}{figure.caption.21}\protected@file@percent }
\newlabel{szabo_circular}{{2.11}{25}{Imagens retiradas do artigo original \cite {szabo2006phase}. (a) \textit {Snapshot} da observação experimental do movimento circular de células confinadas. (b) Simulação computacional das partículas ativas de Szabó confinadas em um quadrado de parades fixas.\relax }{figure.caption.21}{}}
\newlabel{silke_e1}{{2.69}{26}{Modelos com Auto-Alinhamento}{equation.2.1.69}{}}
\newlabel{silke_e2}{{2.70}{26}{Modelos com Auto-Alinhamento}{equation.2.1.69}{}}
\@writefile{lof}{\contentsline {figure}{\numberline {2.12}{\ignorespaces (a) Congestionamento ativo de partículas macias auto-propulsadas: Instantâneos amostrais do sistema na fase líquida ($\phi = 0,6$, à esquerda) e na fase congestionada ($\phi = 0,95$, à direita) para $v_{0} = 0,025$. A fronteira colada é mostrada em cinza escuro. As setas vermelhas representam o campo de velocidade instantânea. (b) Deslocamento quadrático médio em função do tempo, conforme a densidade em v0 = 0,025, mostrando uma transição da difusão rotacional em baixos $\phi $ para o alinhamento polar em $\phi < 0,8$ e para o estado congestionado em torno de $\phi = 0,842$. (c) Diagrama de fase no plano $\phi -v_{0}$, mostrando a transição do estado líquido (azul ou cinza claro) para o estado sólido (vermelho ou cinza escuro). Os pontos representam pares simulados ($\phi $,$v_{0}$), sombreados de branco a preto proporcionalmente à fração de execuções congestionadas.\relax }}{26}{figure.caption.22}\protected@file@percent }
\newlabel{silke_esquema}{{2.12}{26}{(a) Congestionamento ativo de partículas macias auto-propulsadas: Instantâneos amostrais do sistema na fase líquida ($\phi = 0,6$, à esquerda) e na fase congestionada ($\phi = 0,95$, à direita) para $v_{0} = 0,025$. A fronteira colada é mostrada em cinza escuro. As setas vermelhas representam o campo de velocidade instantânea. (b) Deslocamento quadrático médio em função do tempo, conforme a densidade em v0 = 0,025, mostrando uma transição da difusão rotacional em baixos $\phi $ para o alinhamento polar em $\phi < 0,8$ e para o estado congestionado em torno de $\phi = 0,842$. (c) Diagrama de fase no plano $\phi -v_{0}$, mostrando a transição do estado líquido (azul ou cinza claro) para o estado sólido (vermelho ou cinza escuro). Os pontos representam pares simulados ($\phi $,$v_{0}$), sombreados de branco a preto proporcionalmente à fração de execuções congestionadas.\relax }{figure.caption.22}{}}
\@writefile{toc}{\contentsline {subsection}{\numberline {2.1.4}Modelo de Voronoi Ativo}{27}{subsection.2.1.4}\protected@file@percent }
\@writefile{lof}{\contentsline {figure}{\numberline {2.13}{\ignorespaces Transições vítreas e de congestionamento impulsionadas pela motilidade em um modelo de Voronoi auto-propelido. (a) Ilustração do modelo de Voronoi para células confluentes. (b) Diagrama de fase vítrica para tecidos confluentes em função da motilidade celular $v_0$ e do índice de forma alvo p0 com ruído angular fixo. Os pontos de dados azuis correspondem a tecido sólido, enquanto os pontos laranjas correspondem a tecidos em fluxo. A fronteira dinâmica de transição vítrica também coincide com as posições no espaço de fase onde o parâmetro de ordem estrutural $p_0 = 3,81$ (linha tracejada). Na fase sólida, $p_0 \simeq 3,81$, e $p_0 > 3,81$ na fase fluida. (c) Instantâneos do tecido mostram a diferença na forma celular através da transição. As trajetórias celulares também mostram detenção dinâmica devido ao aprisionamento na fase sólida e difusão na fase fluida.\relax }}{28}{figure.caption.23}\protected@file@percent }
\newlabel{voronoi_esquema}{{2.13}{28}{Transições vítreas e de congestionamento impulsionadas pela motilidade em um modelo de Voronoi auto-propelido. (a) Ilustração do modelo de Voronoi para células confluentes. (b) Diagrama de fase vítrica para tecidos confluentes em função da motilidade celular $v_0$ e do índice de forma alvo p0 com ruído angular fixo. Os pontos de dados azuis correspondem a tecido sólido, enquanto os pontos laranjas correspondem a tecidos em fluxo. A fronteira dinâmica de transição vítrica também coincide com as posições no espaço de fase onde o parâmetro de ordem estrutural $p_0 = 3,81$ (linha tracejada). Na fase sólida, $p_0 \simeq 3,81$, e $p_0 > 3,81$ na fase fluida. (c) Instantâneos do tecido mostram a diferença na forma celular através da transição. As trajetórias celulares também mostram detenção dinâmica devido ao aprisionamento na fase sólida e difusão na fase fluida.\relax }{figure.caption.23}{}}
\@writefile{toc}{\contentsline {subsection}{\numberline {2.1.5}Modelo de Anéis}{29}{subsection.2.1.5}\protected@file@percent }
\@writefile{lof}{\contentsline {figure}{\numberline {2.14}{\ignorespaces Esquema de anéis com $N_V = 34$ vértices (com a posição do $j$-ésimo vértice no $m$-ésimo anel dada por $\vec  {v}_{jm}$, área $a_m$ e perímetro $p_m$. $l_mj = p_m/N_V$ é o segmento de linha entre os vértices $j$ e $j + 1$ no polígono $m$. \relax }}{29}{figure.caption.24}\protected@file@percent }
\newlabel{boromand1}{{2.14}{29}{Esquema de anéis com $N_V = 34$ vértices (com a posição do $j$-ésimo vértice no $m$-ésimo anel dada por $\vec {v}_{jm}$, área $a_m$ e perímetro $p_m$. $l_mj = p_m/N_V$ é o segmento de linha entre os vértices $j$ e $j + 1$ no polígono $m$. \relax }{figure.caption.24}{}}
\@writefile{lof}{\contentsline {figure}{\numberline {2.15}{\ignorespaces Instantâneos dos resultados do modelo em diferentes frações de empacotamento congestionado determinadas por uma mudança na forma das partículas (descrita pelo fator de asfericidade, $A$), onde (a) $A = 1,03$, (b) $A = 1,08$ e (c) $A = 1,16$.\relax }}{30}{figure.caption.25}\protected@file@percent }
\newlabel{boromand2}{{2.15}{30}{Instantâneos dos resultados do modelo em diferentes frações de empacotamento congestionado determinadas por uma mudança na forma das partículas (descrita pelo fator de asfericidade, $A$), onde (a) $A = 1,03$, (b) $A = 1,08$ e (c) $A = 1,16$.\relax }{figure.caption.25}{}}
\@writefile{toc}{\contentsline {subsection}{\numberline {2.1.6}Modelo de Anéis Ativos}{30}{subsection.2.1.6}\protected@file@percent }
\@writefile{lof}{\contentsline {figure}{\numberline {2.16}{\ignorespaces Representação de uma seção do anel ativo. \relax }}{31}{figure.caption.26}\protected@file@percent }
\newlabel{Ring scheme}{{2.16}{31}{Representação de uma seção do anel ativo. \relax }{figure.caption.26}{}}
\newlabel{eq_active1}{{2.73}{31}{Modelo de Anéis Ativos}{equation.2.1.73}{}}
\newlabel{eq_active2}{{2.74}{31}{Modelo de Anéis Ativos}{equation.2.1.74}{}}
\newlabel{curv}{{2.79}{32}{Modelo de Anéis Ativos}{equation.2.1.79}{}}
\@writefile{lof}{\contentsline {figure}{\numberline {2.17}{\ignorespaces (a-d) Diagramas que mostram os estados coletivos do sistema. (e) Deslocamento quadrático médio para diferentes estados configuracionais do anel ativo. (f) Dependência da constante de difusão com o número de partículas que formam o anel.\relax }}{32}{figure.caption.27}\protected@file@percent }
\newlabel{Ring scheme}{{2.17}{32}{(a-d) Diagramas que mostram os estados coletivos do sistema. (e) Deslocamento quadrático médio para diferentes estados configuracionais do anel ativo. (f) Dependência da constante de difusão com o número de partículas que formam o anel.\relax }{figure.caption.27}{}}
\@setckpt{cap2_revisaobib}{
\setcounter{page}{34}
\setcounter{equation}{80}
\setcounter{enumi}{0}
\setcounter{enumii}{0}
\setcounter{enumiii}{0}
\setcounter{enumiv}{0}
\setcounter{footnote}{0}
\setcounter{mpfootnote}{0}
\setcounter{part}{0}
\setcounter{chapter}{2}
\setcounter{section}{1}
\setcounter{subsection}{6}
\setcounter{subsubsection}{0}
\setcounter{paragraph}{0}
\setcounter{subparagraph}{0}
\setcounter{figure}{17}
\setcounter{table}{0}
\setcounter{section@level}{2}
\setcounter{Item}{0}
\setcounter{Hfootnote}{1}
\setcounter{bookmark@seq@number}{12}
\setcounter{NAT@ctr}{0}
\setcounter{parentequation}{0}
\setcounter{@pps}{0}
\setcounter{@ppsavesec}{0}
\setcounter{@ppsaveapp}{0}
\setcounter{AM@survey}{0}
\setcounter{caption@flags}{2}
\setcounter{continuedfloat}{0}
\setcounter{KVtest}{0}
\setcounter{subfigure}{0}
\setcounter{subfigure@save}{0}
\setcounter{lofdepth}{1}
\setcounter{subtable}{0}
\setcounter{subtable@save}{0}
\setcounter{lotdepth}{1}
\setcounter{tabx@nest}{0}
\setcounter{listtotal}{0}
\setcounter{listcount}{0}
\setcounter{liststart}{0}
\setcounter{liststop}{0}
\setcounter{citecount}{0}
\setcounter{citetotal}{0}
\setcounter{multicitecount}{0}
\setcounter{multicitetotal}{0}
\setcounter{instcount}{105}
\setcounter{maxnames}{3}
\setcounter{minnames}{1}
\setcounter{maxitems}{3}
\setcounter{minitems}{1}
\setcounter{citecounter}{0}
\setcounter{maxcitecounter}{0}
\setcounter{savedcitecounter}{0}
\setcounter{uniquelist}{0}
\setcounter{uniquename}{0}
\setcounter{refsection}{0}
\setcounter{refsegment}{0}
\setcounter{maxextratitle}{0}
\setcounter{maxextratitleyear}{0}
\setcounter{maxextraname}{0}
\setcounter{maxextradate}{0}
\setcounter{maxextraalpha}{0}
\setcounter{abbrvpenalty}{50}
\setcounter{highnamepenalty}{50}
\setcounter{lownamepenalty}{25}
\setcounter{maxparens}{3}
\setcounter{parenlevel}{0}
\setcounter{blx@maxsection}{0}
\setcounter{mincomprange}{10}
\setcounter{maxcomprange}{100000}
\setcounter{mincompwidth}{1}
\setcounter{afterword}{0}
\setcounter{savedafterword}{0}
\setcounter{annotator}{0}
\setcounter{savedannotator}{0}
\setcounter{author}{0}
\setcounter{savedauthor}{0}
\setcounter{bookauthor}{0}
\setcounter{savedbookauthor}{0}
\setcounter{commentator}{0}
\setcounter{savedcommentator}{0}
\setcounter{editor}{0}
\setcounter{savededitor}{0}
\setcounter{editora}{0}
\setcounter{savededitora}{0}
\setcounter{editorb}{0}
\setcounter{savededitorb}{0}
\setcounter{editorc}{0}
\setcounter{savededitorc}{0}
\setcounter{foreword}{0}
\setcounter{savedforeword}{0}
\setcounter{holder}{0}
\setcounter{savedholder}{0}
\setcounter{introduction}{0}
\setcounter{savedintroduction}{0}
\setcounter{namea}{0}
\setcounter{savednamea}{0}
\setcounter{nameb}{0}
\setcounter{savednameb}{0}
\setcounter{namec}{0}
\setcounter{savednamec}{0}
\setcounter{translator}{0}
\setcounter{savedtranslator}{0}
\setcounter{shortauthor}{0}
\setcounter{savedshortauthor}{0}
\setcounter{shorteditor}{0}
\setcounter{savedshorteditor}{0}
\setcounter{labelname}{0}
\setcounter{savedlabelname}{0}
\setcounter{institution}{0}
\setcounter{savedinstitution}{0}
\setcounter{lista}{0}
\setcounter{savedlista}{0}
\setcounter{listb}{0}
\setcounter{savedlistb}{0}
\setcounter{listc}{0}
\setcounter{savedlistc}{0}
\setcounter{listd}{0}
\setcounter{savedlistd}{0}
\setcounter{liste}{0}
\setcounter{savedliste}{0}
\setcounter{listf}{0}
\setcounter{savedlistf}{0}
\setcounter{location}{0}
\setcounter{savedlocation}{0}
\setcounter{organization}{0}
\setcounter{savedorganization}{0}
\setcounter{origlocation}{0}
\setcounter{savedoriglocation}{0}
\setcounter{origpublisher}{0}
\setcounter{savedorigpublisher}{0}
\setcounter{publisher}{0}
\setcounter{savedpublisher}{0}
\setcounter{language}{0}
\setcounter{savedlanguage}{0}
\setcounter{origlanguage}{0}
\setcounter{savedoriglanguage}{0}
\setcounter{pageref}{0}
\setcounter{savedpageref}{0}
\setcounter{textcitecount}{0}
\setcounter{textcitetotal}{0}
\setcounter{textcitemaxnames}{0}
\setcounter{biburlbigbreakpenalty}{100}
\setcounter{biburlbreakpenalty}{200}
\setcounter{biburlnumpenalty}{0}
\setcounter{biburlucpenalty}{0}
\setcounter{biburllcpenalty}{0}
\setcounter{smartand}{1}
\setcounter{bbx:relatedcount}{0}
\setcounter{bbx:relatedtotal}{0}
\setcounter{bean}{0}
}
