\relax 
\providecommand\babel@aux[2]{}
\@nameuse{bbl@beforestart}
\providecommand\hyper@newdestlabel[2]{}
\providecommand\HyperFirstAtBeginDocument{\AtBeginDocument}
\HyperFirstAtBeginDocument{\ifx\hyper@anchor\@undefined
\global\let\oldnewlabel\newlabel
\gdef\newlabel#1#2{\newlabelxx{#1}#2}
\gdef\newlabelxx#1#2#3#4#5#6{\oldnewlabel{#1}{{#2}{#3}}}
\AtEndDocument{\ifx\hyper@anchor\@undefined
\let\newlabel\oldnewlabel
\fi}
\fi}
\global\let\hyper@last\relax 
\gdef\HyperFirstAtBeginDocument#1{#1}
\providecommand\HyField@AuxAddToFields[1]{}
\providecommand\HyField@AuxAddToCoFields[2]{}
\abx@aux@refcontext{none/global//global/global}
\@input{1capa.aux}
\babel@aux{nil}{}
\@input{2agrad.aux}
\@writefile{toc}{\contentsline {chapter}{\bf  Conteúdo}{1}{chapter*.1}\protected@file@percent }
\@input{cap1_introduction.aux}
\@input{cap2_revisaobib.aux}
\abx@aux@cite{0}{wooldridge1995intelligent}
\abx@aux@segm{0}{0}{wooldridge1995intelligent}
\abx@aux@cite{0}{muller1997intelligent}
\abx@aux@segm{0}{0}{muller1997intelligent}
\abx@aux@cite{0}{schweitzer2003brownian}
\abx@aux@segm{0}{0}{schweitzer2003brownian}
\abx@aux@cite{0}{uhlenbeck1930theory}
\abx@aux@segm{0}{0}{uhlenbeck1930theory}
\abx@aux@cite{0}{furth1920brownsche}
\abx@aux@segm{0}{0}{furth1920brownsche}
\abx@aux@cite{0}{vicsek1995novel}
\abx@aux@segm{0}{0}{vicsek1995novel}
\abx@aux@cite{0}{szabo2006phase}
\abx@aux@segm{0}{0}{szabo2006phase}
\abx@aux@cite{0}{brown1828xxvii}
\abx@aux@segm{0}{0}{brown1828xxvii}
\abx@aux@cite{0}{ingen1784bemerkungen}
\abx@aux@segm{0}{0}{ingen1784bemerkungen}
\abx@aux@cite{0}{uhlenbeck1930theory}
\abx@aux@segm{0}{0}{uhlenbeck1930theory}
\abx@aux@cite{0}{furth1920brownsche}
\abx@aux@segm{0}{0}{furth1920brownsche}
\abx@aux@cite{0}{hartman1994fundamental}
\abx@aux@segm{0}{0}{hartman1994fundamental}
\abx@aux@cite{0}{gail1970locomotion}
\abx@aux@segm{0}{0}{gail1970locomotion}
\abx@aux@cite{0}{dunn1987unified}
\abx@aux@segm{0}{0}{dunn1987unified}
\abx@aux@cite{0}{maheshwari1998deconstructing}
\abx@aux@segm{0}{0}{maheshwari1998deconstructing}
\abx@aux@cite{0}{tome2015stochastic}
\abx@aux@segm{0}{0}{tome2015stochastic}
\abx@aux@cite{0}{gardiner1985handbook}
\abx@aux@segm{0}{0}{gardiner1985handbook}
\abx@aux@cite{0}{tome2015stochastic}
\abx@aux@segm{0}{0}{tome2015stochastic}
\abx@aux@cite{0}{gardiner1985handbook}
\abx@aux@segm{0}{0}{gardiner1985handbook}
\abx@aux@cite{0}{tome2015stochastic}
\abx@aux@segm{0}{0}{tome2015stochastic}
\abx@aux@cite{0}{schweitzer2003brownian}
\abx@aux@segm{0}{0}{schweitzer2003brownian}
\abx@aux@cite{0}{uhlenbeck1930theory}
\abx@aux@segm{0}{0}{uhlenbeck1930theory}
\abx@aux@cite{0}{uhlenbeck1930theory}
\abx@aux@segm{0}{0}{uhlenbeck1930theory}
\abx@aux@cite{0}{selmeczi2005cell}
\abx@aux@segm{0}{0}{selmeczi2005cell}
\abx@aux@cite{0}{schweitzer1998complex}
\abx@aux@segm{0}{0}{schweitzer1998complex}
\abx@aux@cite{0}{tome2015stochastic}
\abx@aux@segm{0}{0}{tome2015stochastic}
\abx@aux@cite{0}{furth1920brownsche}
\abx@aux@segm{0}{0}{furth1920brownsche}
\abx@aux@cite{0}{li2008persistent}
\abx@aux@segm{0}{0}{li2008persistent}
\abx@aux@cite{0}{li2008persistent}
\abx@aux@segm{0}{0}{li2008persistent}
\abx@aux@cite{0}{furth1920brownsche}
\abx@aux@segm{0}{0}{furth1920brownsche}
\abx@aux@cite{0}{selmeczi2005cell}
\abx@aux@segm{0}{0}{selmeczi2005cell}
\abx@aux@cite{0}{uhlenbeck1930theory}
\abx@aux@segm{0}{0}{uhlenbeck1930theory}
\abx@aux@cite{0}{gail1970locomotion}
\abx@aux@segm{0}{0}{gail1970locomotion}
\abx@aux@cite{0}{hartman1994fundamental}
\abx@aux@segm{0}{0}{hartman1994fundamental}
\abx@aux@cite{0}{codling2008random}
\abx@aux@segm{0}{0}{codling2008random}
\abx@aux@cite{0}{potdar2010genetic}
\abx@aux@segm{0}{0}{potdar2010genetic}
\abx@aux@cite{0}{potdar2010genetic}
\abx@aux@segm{0}{0}{potdar2010genetic}
\abx@aux@cite{0}{li2008persistent}
\abx@aux@segm{0}{0}{li2008persistent}
\abx@aux@cite{0}{li2008persistent}
\abx@aux@segm{0}{0}{li2008persistent}
\abx@aux@cite{0}{tome2015stochastic}
\abx@aux@segm{0}{0}{tome2015stochastic}
\abx@aux@cite{0}{schweitzer1998complex}
\abx@aux@segm{0}{0}{schweitzer1998complex}
\abx@aux@cite{0}{fodor2018statistical}
\abx@aux@segm{0}{0}{fodor2018statistical}
\abx@aux@cite{0}{romanczuk2012active}
\abx@aux@segm{0}{0}{romanczuk2012active}
\abx@aux@cite{0}{bechinger2016active}
\abx@aux@segm{0}{0}{bechinger2016active}
\abx@aux@cite{0}{lowen2020inertial}
\abx@aux@segm{0}{0}{lowen2020inertial}
\abx@aux@cite{0}{schweitzer1998complex}
\abx@aux@segm{0}{0}{schweitzer1998complex}
\abx@aux@cite{0}{schweitzer1998complex}
\abx@aux@segm{0}{0}{schweitzer1998complex}
\abx@aux@cite{0}{fodor2018statistical}
\abx@aux@segm{0}{0}{fodor2018statistical}
\abx@aux@cite{0}{romanczuk2012active}
\abx@aux@segm{0}{0}{romanczuk2012active}
\abx@aux@cite{0}{lowen2020inertial}
\abx@aux@segm{0}{0}{lowen2020inertial}
\abx@aux@cite{0}{la2019cell}
\abx@aux@segm{0}{0}{la2019cell}
\abx@aux@cite{0}{ziebert2016macroscopic}
\abx@aux@segm{0}{0}{ziebert2016macroscopic}
\abx@aux@cite{0}{bechinger2016active}
\abx@aux@segm{0}{0}{bechinger2016active}
\abx@aux@cite{0}{lowen2020inertial}
\abx@aux@segm{0}{0}{lowen2020inertial}
\abx@aux@cite{0}{romanczuk2012active}
\abx@aux@segm{0}{0}{romanczuk2012active}
\abx@aux@cite{0}{bechinger2016active}
\abx@aux@segm{0}{0}{bechinger2016active}
\abx@aux@cite{0}{lowen2020inertial}
\abx@aux@segm{0}{0}{lowen2020inertial}
\abx@aux@cite{0}{romanczuk2012active}
\abx@aux@segm{0}{0}{romanczuk2012active}
\abx@aux@cite{0}{la2019cell}
\abx@aux@segm{0}{0}{la2019cell}
\abx@aux@cite{0}{fodor2018statistical}
\abx@aux@segm{0}{0}{fodor2018statistical}
\abx@aux@cite{0}{lowen2020inertial}
\abx@aux@segm{0}{0}{lowen2020inertial}
\abx@aux@cite{0}{romanczuk2012active}
\abx@aux@segm{0}{0}{romanczuk2012active}
\abx@aux@cite{0}{gardiner1985handbook}
\abx@aux@segm{0}{0}{gardiner1985handbook}
\abx@aux@cite{0}{basu2018active}
\abx@aux@segm{0}{0}{basu2018active}
\abx@aux@cite{0}{bechinger2016active}
\abx@aux@segm{0}{0}{bechinger2016active}
\abx@aux@cite{0}{romanczuk2012active}
\abx@aux@segm{0}{0}{romanczuk2012active}
\abx@aux@cite{0}{fodor2018statistical}
\abx@aux@segm{0}{0}{fodor2018statistical}
\abx@aux@cite{0}{romanczuk2012active}
\abx@aux@segm{0}{0}{romanczuk2012active}
\abx@aux@cite{0}{bechinger2016active}
\abx@aux@segm{0}{0}{bechinger2016active}
\abx@aux@cite{0}{fodor2018statistical}
\abx@aux@segm{0}{0}{fodor2018statistical}
\abx@aux@cite{0}{lowen2020inertial}
\abx@aux@segm{0}{0}{lowen2020inertial}
\abx@aux@cite{0}{dieterich2008anomalous}
\abx@aux@segm{0}{0}{dieterich2008anomalous}
\abx@aux@cite{0}{fodor2018statistical}
\abx@aux@segm{0}{0}{fodor2018statistical}
\abx@aux@cite{0}{fodor2018statistical}
\abx@aux@segm{0}{0}{fodor2018statistical}
\abx@aux@cite{0}{lowen2020inertial}
\abx@aux@segm{0}{0}{lowen2020inertial}
\abx@aux@cite{0}{la2019cell}
\abx@aux@segm{0}{0}{la2019cell}
\abx@aux@cite{0}{vicsek2012collective}
\abx@aux@segm{0}{0}{vicsek2012collective}
\abx@aux@cite{0}{vicsek2012collective}
\abx@aux@segm{0}{0}{vicsek2012collective}
\abx@aux@cite{0}{romanczuk2012active}
\abx@aux@segm{0}{0}{romanczuk2012active}
\abx@aux@cite{0}{vicsek1995novel}
\abx@aux@segm{0}{0}{vicsek1995novel}
\abx@aux@cite{0}{shaebani2020computational}
\abx@aux@segm{0}{0}{shaebani2020computational}
\abx@aux@cite{0}{chate2008collective}
\abx@aux@segm{0}{0}{chate2008collective}
\abx@aux@cite{0}{vicsek1995novel}
\abx@aux@segm{0}{0}{vicsek1995novel}
\abx@aux@cite{0}{vicsek1995novel}
\abx@aux@segm{0}{0}{vicsek1995novel}
\abx@aux@cite{0}{vicsek2012collective}
\abx@aux@segm{0}{0}{vicsek2012collective}
\abx@aux@cite{0}{romanczuk2012active}
\abx@aux@segm{0}{0}{romanczuk2012active}
\abx@aux@cite{0}{chate2008collective}
\abx@aux@segm{0}{0}{chate2008collective}
\abx@aux@cite{0}{shaebani2020computational}
\abx@aux@segm{0}{0}{shaebani2020computational}
\abx@aux@cite{0}{chate2008collective}
\abx@aux@segm{0}{0}{chate2008collective}
\abx@aux@cite{0}{nagy2007new}
\abx@aux@segm{0}{0}{nagy2007new}
\abx@aux@cite{0}{vicsek2012collective}
\abx@aux@segm{0}{0}{vicsek2012collective}
\abx@aux@cite{0}{romanczuk2012active}
\abx@aux@segm{0}{0}{romanczuk2012active}
\abx@aux@cite{0}{szabo2006phase}
\abx@aux@segm{0}{0}{szabo2006phase}
\abx@aux@cite{0}{szabo2006phase}
\abx@aux@segm{0}{0}{szabo2006phase}
\abx@aux@cite{0}{szabo2006phase}
\abx@aux@segm{0}{0}{szabo2006phase}
\abx@aux@cite{0}{szabo2006phase}
\abx@aux@segm{0}{0}{szabo2006phase}
\abx@aux@cite{0}{szabo2006phase}
\abx@aux@segm{0}{0}{szabo2006phase}
\abx@aux@cite{0}{la2019cell}
\abx@aux@segm{0}{0}{la2019cell}
\abx@aux@cite{0}{vicsek2012collective}
\abx@aux@segm{0}{0}{vicsek2012collective}
\abx@aux@cite{0}{szabo2006phase}
\abx@aux@segm{0}{0}{szabo2006phase}
\abx@aux@cite{0}{szabo2006phase}
\abx@aux@segm{0}{0}{szabo2006phase}
\abx@aux@cite{0}{romanczuk2012active}
\abx@aux@segm{0}{0}{romanczuk2012active}
\abx@aux@cite{0}{lowen2020inertial}
\abx@aux@segm{0}{0}{lowen2020inertial}
\abx@aux@cite{0}{szabo2006phase}
\abx@aux@segm{0}{0}{szabo2006phase}
\abx@aux@cite{0}{szabo2006phase}
\abx@aux@segm{0}{0}{szabo2006phase}
\@input{cap3_metodologia.aux}
\abx@aux@cite{0}{szabo}
\abx@aux@segm{0}{0}{szabo}
\abx@aux@cite{0}{sarkar2021minimal}
\abx@aux@segm{0}{0}{sarkar2021minimal}
\abx@aux@cite{0}{purcell1977life}
\abx@aux@segm{0}{0}{purcell1977life}
\abx@aux@cite{0}{bechinger2016active}
\abx@aux@segm{0}{0}{bechinger2016active}
\abx@aux@cite{0}{szabo}
\abx@aux@segm{0}{0}{szabo}
\abx@aux@cite{0}{PhysRevLett.121.248003}
\abx@aux@segm{0}{0}{PhysRevLett.121.248003}
\abx@aux@cite{0}{PhysRevX.6.021011}
\abx@aux@segm{0}{0}{PhysRevX.6.021011}
\abx@aux@cite{0}{martin2018collective}
\abx@aux@segm{0}{0}{martin2018collective}
\@input{cap4_resultados.aux}
\@input{cap5_conclusion.aux}
\abx@aux@read@bbl@mdfivesum{91E403085BE6437B31ACE8BD2273B099}
\abx@aux@read@bblrerun
\abx@aux@defaultrefcontext{0}{wooldridge1995intelligent}{none/global//global/global}
\abx@aux@defaultrefcontext{0}{muller1997intelligent}{none/global//global/global}
\abx@aux@defaultrefcontext{0}{schweitzer2003brownian}{none/global//global/global}
\abx@aux@defaultrefcontext{0}{uhlenbeck1930theory}{none/global//global/global}
\abx@aux@defaultrefcontext{0}{furth1920brownsche}{none/global//global/global}
\abx@aux@defaultrefcontext{0}{vicsek1995novel}{none/global//global/global}
\abx@aux@defaultrefcontext{0}{szabo2006phase}{none/global//global/global}
\abx@aux@defaultrefcontext{0}{brown1828xxvii}{none/global//global/global}
\abx@aux@defaultrefcontext{0}{ingen1784bemerkungen}{none/global//global/global}
\abx@aux@defaultrefcontext{0}{hartman1994fundamental}{none/global//global/global}
\abx@aux@defaultrefcontext{0}{gail1970locomotion}{none/global//global/global}
\abx@aux@defaultrefcontext{0}{dunn1987unified}{none/global//global/global}
\abx@aux@defaultrefcontext{0}{maheshwari1998deconstructing}{none/global//global/global}
\abx@aux@defaultrefcontext{0}{tome2015stochastic}{none/global//global/global}
\abx@aux@defaultrefcontext{0}{gardiner1985handbook}{none/global//global/global}
\abx@aux@defaultrefcontext{0}{selmeczi2005cell}{none/global//global/global}
\abx@aux@defaultrefcontext{0}{schweitzer1998complex}{none/global//global/global}
\abx@aux@defaultrefcontext{0}{li2008persistent}{none/global//global/global}
\abx@aux@defaultrefcontext{0}{codling2008random}{none/global//global/global}
\abx@aux@defaultrefcontext{0}{potdar2010genetic}{none/global//global/global}
\abx@aux@defaultrefcontext{0}{fodor2018statistical}{none/global//global/global}
\abx@aux@defaultrefcontext{0}{romanczuk2012active}{none/global//global/global}
\abx@aux@defaultrefcontext{0}{bechinger2016active}{none/global//global/global}
\abx@aux@defaultrefcontext{0}{lowen2020inertial}{none/global//global/global}
\abx@aux@defaultrefcontext{0}{la2019cell}{none/global//global/global}
\abx@aux@defaultrefcontext{0}{ziebert2016macroscopic}{none/global//global/global}
\abx@aux@defaultrefcontext{0}{basu2018active}{none/global//global/global}
\abx@aux@defaultrefcontext{0}{dieterich2008anomalous}{none/global//global/global}
\abx@aux@defaultrefcontext{0}{vicsek2012collective}{none/global//global/global}
\abx@aux@defaultrefcontext{0}{shaebani2020computational}{none/global//global/global}
\abx@aux@defaultrefcontext{0}{chate2008collective}{none/global//global/global}
\abx@aux@defaultrefcontext{0}{nagy2007new}{none/global//global/global}
\abx@aux@defaultrefcontext{0}{martin2018collective}{none/global//global/global}
\gdef \@abspage@last{46}
