This is pdfTeX, Version 3.141592653-2.6-1.40.24 (TeX Live 2022/Debian) (preloaded format=pdflatex 2023.12.14)  14 DEC 2023 15:26
entering extended mode
 restricted \write18 enabled.
 %&-line parsing enabled.
**main.tex
(./main.tex
LaTeX2e <2022-11-01> patch level 1
L3 programming layer <2023-01-16>
(/usr/share/texlive/texmf-dist/tex/latex/base/report.cls
Document Class: report 2022/07/02 v1.4n Standard LaTeX document class
(/usr/share/texlive/texmf-dist/tex/latex/base/size12.clo
File: size12.clo 2022/07/02 v1.4n Standard LaTeX file (size option)
)
\c@part=\count185
\c@chapter=\count186
\c@section=\count187
\c@subsection=\count188
\c@subsubsection=\count189
\c@paragraph=\count190
\c@subparagraph=\count191
\c@figure=\count192
\c@table=\count193
\abovecaptionskip=\skip48
\belowcaptionskip=\skip49
\bibindent=\dimen140
)
(/usr/share/texlive/texmf-dist/tex/generic/babel/babel.sty
Package: babel 2022/12/26 3.84 The Babel package
\babel@savecnt=\count194
\U@D=\dimen141
\l@unhyphenated=\language7

(/usr/share/texlive/texmf-dist/tex/generic/babel/txtbabel.def)
\bbl@readstream=\read2
\bbl@dirlevel=\count195


! Package babel Error: Unknown option 'portuguese'. Either you misspelled it
(babel)                or the language definition file portuguese.ldf was not f
ound.

See the babel package documentation for explanation.
Type  H <return>  for immediate help.
 ...                                              
                                                  
l.4357 \ProcessOptions*
                       
? 
Package babel Info: You haven't specified a language as a class or package
(babel)             option. I'll load 'nil'. Reported on input line 4406.
(/usr/share/texlive/texmf-dist/tex/generic/babel/nil.ldf
Language: nil 2022/12/26 3.84 Nil language
\l@nil=\language8
))
(/usr/share/texlive/texmf-dist/tex/latex/hyperref/hyperref.sty
Package: hyperref 2022-11-13 v7.00u Hypertext links for LaTeX

(/usr/share/texlive/texmf-dist/tex/generic/ltxcmds/ltxcmds.sty
Package: ltxcmds 2020-05-10 v1.25 LaTeX kernel commands for general use (HO)
)
(/usr/share/texlive/texmf-dist/tex/generic/iftex/iftex.sty
Package: iftex 2022/02/03 v1.0f TeX engine tests
)
(/usr/share/texlive/texmf-dist/tex/generic/pdftexcmds/pdftexcmds.sty
Package: pdftexcmds 2020-06-27 v0.33 Utility functions of pdfTeX for LuaTeX (HO
)

(/usr/share/texlive/texmf-dist/tex/generic/infwarerr/infwarerr.sty
Package: infwarerr 2019/12/03 v1.5 Providing info/warning/error messages (HO)
)
Package pdftexcmds Info: \pdf@primitive is available.
Package pdftexcmds Info: \pdf@ifprimitive is available.
Package pdftexcmds Info: \pdfdraftmode found.
)
(/usr/share/texlive/texmf-dist/tex/latex/graphics/keyval.sty
Package: keyval 2022/05/29 v1.15 key=value parser (DPC)
\KV@toks@=\toks16
)
(/usr/share/texlive/texmf-dist/tex/latex/kvsetkeys/kvsetkeys.sty
Package: kvsetkeys 2022-10-05 v1.19 Key value parser (HO)
)
(/usr/share/texlive/texmf-dist/tex/generic/kvdefinekeys/kvdefinekeys.sty
Package: kvdefinekeys 2019-12-19 v1.6 Define keys (HO)
)
(/usr/share/texlive/texmf-dist/tex/generic/pdfescape/pdfescape.sty
Package: pdfescape 2019/12/09 v1.15 Implements pdfTeX's escape features (HO)
)
(/usr/share/texlive/texmf-dist/tex/latex/hycolor/hycolor.sty
Package: hycolor 2020-01-27 v1.10 Color options for hyperref/bookmark (HO)
)
(/usr/share/texlive/texmf-dist/tex/latex/letltxmacro/letltxmacro.sty
Package: letltxmacro 2019/12/03 v1.6 Let assignment for LaTeX macros (HO)
)
(/usr/share/texlive/texmf-dist/tex/latex/auxhook/auxhook.sty
Package: auxhook 2019-12-17 v1.6 Hooks for auxiliary files (HO)
)
(/usr/share/texlive/texmf-dist/tex/latex/hyperref/nameref.sty
Package: nameref 2022-05-17 v2.50 Cross-referencing by name of section

(/usr/share/texlive/texmf-dist/tex/latex/refcount/refcount.sty
Package: refcount 2019/12/15 v3.6 Data extraction from label references (HO)
)
(/usr/share/texlive/texmf-dist/tex/generic/gettitlestring/gettitlestring.sty
Package: gettitlestring 2019/12/15 v1.6 Cleanup title references (HO)

(/usr/share/texlive/texmf-dist/tex/latex/kvoptions/kvoptions.sty
Package: kvoptions 2022-06-15 v3.15 Key value format for package options (HO)
))
\c@section@level=\count196
)
\@linkdim=\dimen142
\Hy@linkcounter=\count197
\Hy@pagecounter=\count198

(/usr/share/texlive/texmf-dist/tex/latex/hyperref/pd1enc.def
File: pd1enc.def 2022-11-13 v7.00u Hyperref: PDFDocEncoding definition (HO)
Now handling font encoding PD1 ...
... no UTF-8 mapping file for font encoding PD1
)
(/usr/share/texlive/texmf-dist/tex/generic/intcalc/intcalc.sty
Package: intcalc 2019/12/15 v1.3 Expandable calculations with integers (HO)
)
(/usr/share/texlive/texmf-dist/tex/generic/etexcmds/etexcmds.sty
Package: etexcmds 2019/12/15 v1.7 Avoid name clashes with e-TeX commands (HO)
)
\Hy@SavedSpaceFactor=\count199

(/usr/share/texlive/texmf-dist/tex/latex/hyperref/puenc.def
File: puenc.def 2022-11-13 v7.00u Hyperref: PDF Unicode definition (HO)
Now handling font encoding PU ...
... no UTF-8 mapping file for font encoding PU
)
Package hyperref Info: Hyper figures OFF on input line 4162.
Package hyperref Info: Link nesting OFF on input line 4167.
Package hyperref Info: Hyper index ON on input line 4170.
Package hyperref Info: Plain pages OFF on input line 4177.
Package hyperref Info: Backreferencing OFF on input line 4182.
Package hyperref Info: Implicit mode ON; LaTeX internals redefined.
Package hyperref Info: Bookmarks ON on input line 4410.
\c@Hy@tempcnt=\count266

(/usr/share/texlive/texmf-dist/tex/latex/url/url.sty
\Urlmuskip=\muskip16
Package: url 2013/09/16  ver 3.4  Verb mode for urls, etc.
)
LaTeX Info: Redefining \url on input line 4748.
\XeTeXLinkMargin=\dimen143

(/usr/share/texlive/texmf-dist/tex/generic/bitset/bitset.sty
Package: bitset 2019/12/09 v1.3 Handle bit-vector datatype (HO)

(/usr/share/texlive/texmf-dist/tex/generic/bigintcalc/bigintcalc.sty
Package: bigintcalc 2019/12/15 v1.5 Expandable calculations on big integers (HO
)
))
\Fld@menulength=\count267
\Field@Width=\dimen144
\Fld@charsize=\dimen145
Package hyperref Info: Hyper figures OFF on input line 6027.
Package hyperref Info: Link nesting OFF on input line 6032.
Package hyperref Info: Hyper index ON on input line 6035.
Package hyperref Info: backreferencing OFF on input line 6042.
Package hyperref Info: Link coloring OFF on input line 6047.
Package hyperref Info: Link coloring with OCG OFF on input line 6052.
Package hyperref Info: PDF/A mode OFF on input line 6057.

(/usr/share/texlive/texmf-dist/tex/latex/base/atbegshi-ltx.sty
Package: atbegshi-ltx 2021/01/10 v1.0c Emulation of the original atbegshi
package with kernel methods
)
\Hy@abspage=\count268
\c@Item=\count269
\c@Hfootnote=\count270
)
Package hyperref Info: Driver (autodetected): hpdftex.

(/usr/share/texlive/texmf-dist/tex/latex/hyperref/hpdftex.def
File: hpdftex.def 2022-11-13 v7.00u Hyperref driver for pdfTeX

(/usr/share/texlive/texmf-dist/tex/latex/base/atveryend-ltx.sty
Package: atveryend-ltx 2020/08/19 v1.0a Emulation of the original atveryend pac
kage
with kernel methods
)
\Fld@listcount=\count271
\c@bookmark@seq@number=\count272

(/usr/share/texlive/texmf-dist/tex/latex/rerunfilecheck/rerunfilecheck.sty
Package: rerunfilecheck 2022-07-10 v1.10 Rerun checks for auxiliary files (HO)

(/usr/share/texlive/texmf-dist/tex/generic/uniquecounter/uniquecounter.sty
Package: uniquecounter 2019/12/15 v1.4 Provide unlimited unique counter (HO)
)
Package uniquecounter Info: New unique counter `rerunfilecheck' on input line 2
85.
)
\Hy@SectionHShift=\skip50
)
(/usr/share/texlive/texmf-dist/tex/latex/natbib/natbib.sty
Package: natbib 2010/09/13 8.31b (PWD, AO)
\bibhang=\skip51
\bibsep=\skip52
LaTeX Info: Redefining \cite on input line 694.
\c@NAT@ctr=\count273
)
(/usr/share/texlive/texmf-dist/tex/latex/tools/bm.sty
Package: bm 2022/01/05 v1.2f Bold Symbol Support (DPC/FMi)
\symboldoperators=\mathgroup4
\symboldletters=\mathgroup5
\symboldsymbols=\mathgroup6
Package bm Info: No bold for \OMX/cmex/m/n, using \pmb.
LaTeX Font Info:    Redeclaring math alphabet \mathbf on input line 149.
)
(/usr/share/texlive/texmf-dist/tex/latex/graphics/graphicx.sty
Package: graphicx 2021/09/16 v1.2d Enhanced LaTeX Graphics (DPC,SPQR)

(/usr/share/texlive/texmf-dist/tex/latex/graphics/graphics.sty
Package: graphics 2022/03/10 v1.4e Standard LaTeX Graphics (DPC,SPQR)

(/usr/share/texlive/texmf-dist/tex/latex/graphics/trig.sty
Package: trig 2021/08/11 v1.11 sin cos tan (DPC)
)
(/usr/share/texlive/texmf-dist/tex/latex/graphics-cfg/graphics.cfg
File: graphics.cfg 2016/06/04 v1.11 sample graphics configuration
)
Package graphics Info: Driver file: pdftex.def on input line 107.

(/usr/share/texlive/texmf-dist/tex/latex/graphics-def/pdftex.def
File: pdftex.def 2022/09/22 v1.2b Graphics/color driver for pdftex
))
\Gin@req@height=\dimen146
\Gin@req@width=\dimen147
)
(/usr/share/texlive/texmf-dist/tex/latex/base/inputenc.sty
Package: inputenc 2021/02/14 v1.3d Input encoding file
\inpenc@prehook=\toks17
\inpenc@posthook=\toks18
)
(/usr/share/texlive/texmf-dist/tex/latex/tools/enumerate.sty
Package: enumerate 2015/07/23 v3.00 enumerate extensions (DPC)
\@enLab=\toks19
)
(/usr/share/texlive/texmf-dist/tex/latex/amsmath/amsmath.sty
Package: amsmath 2022/04/08 v2.17n AMS math features
\@mathmargin=\skip53

For additional information on amsmath, use the `?' option.
(/usr/share/texlive/texmf-dist/tex/latex/amsmath/amstext.sty
Package: amstext 2021/08/26 v2.01 AMS text

(/usr/share/texlive/texmf-dist/tex/latex/amsmath/amsgen.sty
File: amsgen.sty 1999/11/30 v2.0 generic functions
\@emptytoks=\toks20
\ex@=\dimen148
))
(/usr/share/texlive/texmf-dist/tex/latex/amsmath/amsbsy.sty
Package: amsbsy 1999/11/29 v1.2d Bold Symbols
LaTeX Info: Redefining \boldsymbol on input line 28.
\pmbraise@=\dimen149
)
(/usr/share/texlive/texmf-dist/tex/latex/amsmath/amsopn.sty
Package: amsopn 2022/04/08 v2.04 operator names
)
\inf@bad=\count274
LaTeX Info: Redefining \frac on input line 234.
\uproot@=\count275
\leftroot@=\count276
LaTeX Info: Redefining \overline on input line 399.
LaTeX Info: Redefining \colon on input line 410.
\classnum@=\count277
\DOTSCASE@=\count278
LaTeX Info: Redefining \ldots on input line 496.
LaTeX Info: Redefining \dots on input line 499.
LaTeX Info: Redefining \cdots on input line 620.
\Mathstrutbox@=\box51
\strutbox@=\box52
LaTeX Info: Redefining \big on input line 722.
LaTeX Info: Redefining \Big on input line 723.
LaTeX Info: Redefining \bigg on input line 724.
LaTeX Info: Redefining \Bigg on input line 725.
\big@size=\dimen150
LaTeX Font Info:    Redeclaring font encoding OML on input line 743.
LaTeX Font Info:    Redeclaring font encoding OMS on input line 744.
\macc@depth=\count279
LaTeX Info: Redefining \bmod on input line 905.
LaTeX Info: Redefining \pmod on input line 910.
LaTeX Info: Redefining \smash on input line 940.
LaTeX Info: Redefining \relbar on input line 970.
LaTeX Info: Redefining \Relbar on input line 971.
\c@MaxMatrixCols=\count280
\dotsspace@=\muskip17
\c@parentequation=\count281
\dspbrk@lvl=\count282
\tag@help=\toks21
\row@=\count283
\column@=\count284
\maxfields@=\count285
\andhelp@=\toks22
\eqnshift@=\dimen151
\alignsep@=\dimen152
\tagshift@=\dimen153
\tagwidth@=\dimen154
\totwidth@=\dimen155
\lineht@=\dimen156
\@envbody=\toks23
\multlinegap=\skip54
\multlinetaggap=\skip55
\mathdisplay@stack=\toks24
LaTeX Info: Redefining \[ on input line 2953.
LaTeX Info: Redefining \] on input line 2954.
)
(/usr/share/texlive/texmf-dist/tex/latex/amsfonts/amssymb.sty
Package: amssymb 2013/01/14 v3.01 AMS font symbols

(/usr/share/texlive/texmf-dist/tex/latex/amsfonts/amsfonts.sty
Package: amsfonts 2013/01/14 v3.01 Basic AMSFonts support
\symAMSa=\mathgroup7
\symAMSb=\mathgroup8
LaTeX Font Info:    Redeclaring math symbol \hbar on input line 98.
LaTeX Font Info:    Overwriting math alphabet `\mathfrak' in version `bold'
(Font)                  U/euf/m/n --> U/euf/b/n on input line 106.
))
(/usr/share/texlive/texmf-dist/tex/latex/appendix/appendix.sty
Package: appendix 2020/02/08 v1.2c extra appendix facilities
\c@@pps=\count286
\c@@ppsavesec=\count287
\c@@ppsaveapp=\count288
)
(/usr/share/texlive/texmf-dist/tex/latex/tools/indentfirst.sty
Package: indentfirst 1995/11/23 v1.03 Indent first paragraph (DPC)
)
(/usr/share/texlive/texmf-dist/tex/latex/was/icomma.sty
Package: icomma 2002/03/10 v2.0 (WaS)
)
(/usr/share/texlive/texmf-dist/tex/latex/pdfpages/pdfpages.sty
Package: pdfpages 2022/12/19 v0.5x Insert pages of external PDF documents (AM)

(/usr/share/texlive/texmf-dist/tex/latex/base/ifthen.sty
Package: ifthen 2022/04/13 v1.1d Standard LaTeX ifthen package (DPC)
)
(/usr/share/texlive/texmf-dist/tex/latex/tools/calc.sty
Package: calc 2017/05/25 v4.3 Infix arithmetic (KKT,FJ)
\calc@Acount=\count289
\calc@Bcount=\count290
\calc@Adimen=\dimen157
\calc@Bdimen=\dimen158
\calc@Askip=\skip56
\calc@Bskip=\skip57
LaTeX Info: Redefining \setlength on input line 80.
LaTeX Info: Redefining \addtolength on input line 81.
\calc@Ccount=\count291
\calc@Cskip=\skip58
)
(/usr/share/texlive/texmf-dist/tex/latex/eso-pic/eso-pic.sty
Package: eso-pic 2020/10/14 v3.0a eso-pic (RN)
\ESO@tempdima=\dimen159
\ESO@tempdimb=\dimen160

(/usr/share/texlive/texmf-dist/tex/latex/xcolor/xcolor.sty
Package: xcolor 2022/06/12 v2.14 LaTeX color extensions (UK)

(/usr/share/texlive/texmf-dist/tex/latex/graphics-cfg/color.cfg
File: color.cfg 2016/01/02 v1.6 sample color configuration
)
Package xcolor Info: Driver file: pdftex.def on input line 227.

(/usr/share/texlive/texmf-dist/tex/latex/graphics/mathcolor.ltx)
Package xcolor Info: Model `cmy' substituted by `cmy0' on input line 1353.
Package xcolor Info: Model `hsb' substituted by `rgb' on input line 1357.
Package xcolor Info: Model `RGB' extended on input line 1369.
Package xcolor Info: Model `HTML' substituted by `rgb' on input line 1371.
Package xcolor Info: Model `Hsb' substituted by `hsb' on input line 1372.
Package xcolor Info: Model `tHsb' substituted by `hsb' on input line 1373.
Package xcolor Info: Model `HSB' substituted by `hsb' on input line 1374.
Package xcolor Info: Model `Gray' substituted by `gray' on input line 1375.
Package xcolor Info: Model `wave' substituted by `hsb' on input line 1376.
))
\AM@pagewidth=\dimen161
\AM@pageheight=\dimen162
\AM@fboxrule=\dimen163

(/usr/share/texlive/texmf-dist/tex/latex/pdfpages/pppdftex.def
File: pppdftex.def 2022/12/19 v0.5x Pdfpages driver for pdfTeX (AM)
)
\pdfpages@includegraphics@status=\count292
\AM@pagebox=\box53
\AM@global@opts=\toks25
\AM@pagecnt=\count293
\AM@toc@title=\toks26
\AM@lof@heading=\toks27
\c@AM@survey=\count294
\AM@templatesizebox=\box54
)
(/usr/share/texlive/texmf-dist/tex/latex/gensymb/gensymb.sty
Package: gensymb 2022/10/17 v1.0.2 (KJH)
)
(/usr/share/texlive/texmf-dist/tex/latex/base/fixltx2e.sty
Package: fixltx2e 2016/12/29 v2.1a fixes to LaTeX (obsolete)
Applying: [2015/01/01] Old fixltx2e package on input line 46.


Package fixltx2e Warning: fixltx2e is not required with releases after 2015
(fixltx2e)                All fixes are now in the LaTeX kernel.
(fixltx2e)                See the latexrelease package for details.

Already applied: [0000/00/00] Old fixltx2e package on input line 53.
) (/usr/share/texlive/texmf-dist/tex/latex/placeins/placeins.sty
Package: placeins 2005/04/18  v 2.2
)
(/usr/share/texlive/texmf-dist/tex/latex/paralist/paralist.sty
Package: paralist 2017/01/22 v2.7 Extended list environments
\pltopsep=\skip59
\plpartopsep=\skip60
\plitemsep=\skip61
\plparsep=\skip62
\pl@lab=\toks28
)
(/usr/share/texlive/texmf-dist/tex/latex/subfig/subfig.sty
Package: subfig 2005/06/28 ver: 1.3 subfig package

(/usr/share/texlive/texmf-dist/tex/latex/caption/caption.sty
Package: caption 2022/03/01 v3.6b Customizing captions (AR)

(/usr/share/texlive/texmf-dist/tex/latex/caption/caption3.sty
Package: caption3 2022/03/17 v2.3b caption3 kernel (AR)
\caption@tempdima=\dimen164
\captionmargin=\dimen165
\caption@leftmargin=\dimen166
\caption@rightmargin=\dimen167
\caption@width=\dimen168
\caption@indent=\dimen169
\caption@parindent=\dimen170
\caption@hangindent=\dimen171
Package caption Info: Standard document class detected.
)
\c@caption@flags=\count295
\c@continuedfloat=\count296
Package caption Info: hyperref package is loaded.
)
\c@KVtest=\count297
\sf@farskip=\skip63
\sf@captopadj=\dimen172
\sf@capskip=\skip64
\sf@nearskip=\skip65
\c@subfigure=\count298
\c@subfigure@save=\count299
\c@lofdepth=\count300
\c@subtable=\count301
\c@subtable@save=\count302
\c@lotdepth=\count303
\sf@top=\skip66
\sf@bottom=\skip67
)
(/usr/share/texlive/texmf-dist/tex/latex/mathtools/mathtools.sty
Package: mathtools 2022/06/29 v1.29 mathematical typesetting tools

(/usr/share/texlive/texmf-dist/tex/latex/mathtools/mhsetup.sty
Package: mhsetup 2021/03/18 v1.4 programming setup (MH)
)
\g_MT_multlinerow_int=\count304
\l_MT_multwidth_dim=\dimen173
\origjot=\skip68
\l_MT_shortvdotswithinadjustabove_dim=\dimen174
\l_MT_shortvdotswithinadjustbelow_dim=\dimen175
\l_MT_above_intertext_sep=\dimen176
\l_MT_below_intertext_sep=\dimen177
\l_MT_above_shortintertext_sep=\dimen178
\l_MT_below_shortintertext_sep=\dimen179
\xmathstrut@box=\box55
\xmathstrut@dim=\dimen180
)
(/usr/share/texlive/texmf-dist/tex/latex/psnfss/mathptmx.sty
Package: mathptmx 2020/03/25 PSNFSS-v9.3 Times w/ Math, improved (SPQR, WaS) 
LaTeX Font Info:    Redeclaring symbol font `operators' on input line 28.
LaTeX Font Info:    Overwriting symbol font `operators' in version `normal'
(Font)                  OT1/cmr/m/n --> OT1/ztmcm/m/n on input line 28.
LaTeX Font Info:    Overwriting symbol font `operators' in version `bold'
(Font)                  OT1/cmr/bx/n --> OT1/ztmcm/m/n on input line 28.
LaTeX Font Info:    Redeclaring symbol font `letters' on input line 29.
LaTeX Font Info:    Overwriting symbol font `letters' in version `normal'
(Font)                  OML/cmm/m/it --> OML/ztmcm/m/it on input line 29.
LaTeX Font Info:    Overwriting symbol font `letters' in version `bold'
(Font)                  OML/cmm/b/it --> OML/ztmcm/m/it on input line 29.
LaTeX Font Info:    Redeclaring symbol font `symbols' on input line 30.
LaTeX Font Info:    Overwriting symbol font `symbols' in version `normal'
(Font)                  OMS/cmsy/m/n --> OMS/ztmcm/m/n on input line 30.
LaTeX Font Info:    Overwriting symbol font `symbols' in version `bold'
(Font)                  OMS/cmsy/b/n --> OMS/ztmcm/m/n on input line 30.
LaTeX Font Info:    Redeclaring symbol font `largesymbols' on input line 31.
LaTeX Font Info:    Overwriting symbol font `largesymbols' in version `normal'
(Font)                  OMX/cmex/m/n --> OMX/ztmcm/m/n on input line 31.
LaTeX Font Info:    Overwriting symbol font `largesymbols' in version `bold'
(Font)                  OMX/cmex/m/n --> OMX/ztmcm/m/n on input line 31.
\symbold=\mathgroup9
\symitalic=\mathgroup10
LaTeX Font Info:    Redeclaring math alphabet \mathbf on input line 34.
LaTeX Font Info:    Redeclaring math alphabet \mathit on input line 35.
LaTeX Font Info:    Overwriting math alphabet `\mathit' in version `normal'
(Font)                  OT1/cmr/m/it --> OT1/ptm/m/it on input line 35.
LaTeX Font Info:    Overwriting math alphabet `\mathit' in version `bold'
(Font)                  OT1/cmr/bx/it --> OT1/ptm/m/it on input line 35.
LaTeX Info: Redefining \hbar on input line 50.
)
(/usr/share/texlive/texmf-dist/tex/latex/tools/array.sty
Package: array 2022/09/04 v2.5g Tabular extension package (FMi)
\col@sep=\dimen181
\ar@mcellbox=\box56
\extrarowheight=\dimen182
\NC@list=\toks29
\extratabsurround=\skip69
\backup@length=\skip70
\ar@cellbox=\box57
)
(/usr/share/texlive/texmf-dist/tex/latex/grffile/grffile.sty
Package: grffile 2019/11/11 v2.1 Extended file name support for graphics (legac
y)
Package grffile Info: This package is an empty stub for compatibility on input 
line 40.
)
(/usr/share/texlive/texmf-dist/tex/latex/booktabs/booktabs.sty
Package: booktabs 2020/01/12 v1.61803398 Publication quality tables
\heavyrulewidth=\dimen183
\lightrulewidth=\dimen184
\cmidrulewidth=\dimen185
\belowrulesep=\dimen186
\belowbottomsep=\dimen187
\aboverulesep=\dimen188
\abovetopsep=\dimen189
\cmidrulesep=\dimen190
\cmidrulekern=\dimen191
\defaultaddspace=\dimen192
\@cmidla=\count305
\@cmidlb=\count306
\@aboverulesep=\dimen193
\@belowrulesep=\dimen194
\@thisruleclass=\count307
\@lastruleclass=\count308
\@thisrulewidth=\dimen195
)
(/usr/share/texlive/texmf-dist/tex/latex/threeparttable/threeparttable.sty
Package: threeparttable 2003/06/13  v 3.0
\@tempboxb=\box58
)
(/usr/share/texlive/texmf-dist/tex/latex/epstopdf-pkg/epstopdf.sty
Package: epstopdf 2020-01-24 v2.11 Conversion with epstopdf on the fly (HO)

(/usr/share/texlive/texmf-dist/tex/latex/grfext/grfext.sty
Package: grfext 2019/12/03 v1.3 Manage graphics extensions (HO)
)
(/usr/share/texlive/texmf-dist/tex/latex/epstopdf-pkg/epstopdf-base.sty
Package: epstopdf-base 2020-01-24 v2.11 Base part for package epstopdf
Package epstopdf-base Info: Redefining graphics rule for `.eps' on input line 4
85.
Package grfext Info: Graphics extension search list:
(grfext)             [.pdf,.png,.jpg,.mps,.jpeg,.jbig2,.jb2,.PDF,.PNG,.JPG,.JPE
G,.JBIG2,.JB2,.eps]
(grfext)             \AppendGraphicsExtensions on input line 504.

(/usr/share/texlive/texmf-dist/tex/latex/latexconfig/epstopdf-sys.cfg
File: epstopdf-sys.cfg 2010/07/13 v1.3 Configuration of (r)epstopdf for TeX Liv
e
)))
(/usr/share/texlive/texmf-dist/tex/latex/caption/subcaption.sty
Package: subcaption 2022/01/07 v1.5 Sub-captions (AR)


! Package subcaption Error: This package can't be used in cooperation
(subcaption)                with the subfig package.

See the subcaption package documentation for explanation.
Type  H <return>  for immediate help.
 ...                                              
                                                  
l.66 \subcaption@CheckCompatibility
                                   
? 
) (/usr/share/texlive/texmf-dist/tex/latex/siunitx/siunitx.sty
Package: siunitx 2023-01-03 v3.2.0 A comprehensive (SI) units package
\l__siunitx_angle_tmp_dim=\dimen196
\l__siunitx_angle_marker_box=\box59
\l__siunitx_angle_unit_box=\box60
\l__siunitx_compound_count_int=\count309

(/usr/share/texlive/texmf-dist/tex/latex/translations/translations.sty
Package: translations 2022/02/05 v1.12 internationalization of LaTeX2e packages
 (CN)

(/usr/share/texlive/texmf-dist/tex/latex/etoolbox/etoolbox.sty
Package: etoolbox 2020/10/05 v2.5k e-TeX tools for LaTeX (JAW)
\etb@tempcnta=\count310
))
\l__siunitx_number_exponent_fixed_int=\count311
\l__siunitx_number_min_decimal_int=\count312
\l__siunitx_number_min_integer_int=\count313
\l__siunitx_number_round_precision_int=\count314
\l__siunitx_number_lower_threshold_int=\count315
\l__siunitx_number_upper_threshold_int=\count316
\l__siunitx_number_group_first_int=\count317
\l__siunitx_number_group_size_int=\count318
\l__siunitx_number_group_minimum_int=\count319
\l__siunitx_table_tmp_box=\box61
\l__siunitx_table_tmp_dim=\dimen197
\l__siunitx_table_column_width_dim=\dimen198
\l__siunitx_table_integer_box=\box62
\l__siunitx_table_decimal_box=\box63
\l__siunitx_table_uncert_box=\box64
\l__siunitx_table_before_box=\box65
\l__siunitx_table_after_box=\box66
\l__siunitx_table_before_dim=\dimen199
\l__siunitx_table_carry_dim=\dimen256
\l__siunitx_unit_tmp_int=\count320
\l__siunitx_unit_position_int=\count321
\l__siunitx_unit_total_int=\count322
)
(/usr/share/texlive/texmf-dist/tex/generic/ulem/ulem.sty
\UL@box=\box67
\UL@hyphenbox=\box68
\UL@skip=\skip71
\UL@hook=\toks30
\UL@height=\dimen257
\UL@pe=\count323
\UL@pixel=\dimen258
\ULC@box=\box69
Package: ulem 2019/11/18
\ULdepth=\dimen259
)
(/usr/share/texlive/texmf-dist/tex/latex/wrapfig/wrapfig.sty
\wrapoverhang=\dimen260
\WF@size=\dimen261
\c@WF@wrappedlines=\count324
\WF@box=\box70
\WF@everypar=\toks31
Package: wrapfig 2003/01/31  v 3.6
)
(/usr/share/texlive/texmf-dist/tex/latex/biblatex/biblatex.sty
Package: biblatex 2022/07/12 v3.18b programmable bibliographies (PK/MW)

(/usr/share/texlive/texmf-dist/tex/latex/logreq/logreq.sty
Package: logreq 2010/08/04 v1.0 xml request logger
\lrq@indent=\count325

(/usr/share/texlive/texmf-dist/tex/latex/logreq/logreq.def
File: logreq.def 2010/08/04 v1.0 logreq spec v1.0
))

! Package biblatex Error: Incompatible package 'natbib'.

See the biblatex package documentation for explanation.
Type  H <return>  for immediate help.
 ...                                              
                                                  
l.212 \blx@packageincompatibility
                                 
? 
\c@tabx@nest=\count326
\c@listtotal=\count327
\c@listcount=\count328
\c@liststart=\count329
\c@liststop=\count330
\c@citecount=\count331
\c@citetotal=\count332
\c@multicitecount=\count333
\c@multicitetotal=\count334
\c@instcount=\count335
\c@maxnames=\count336
\c@minnames=\count337
\c@maxitems=\count338
\c@minitems=\count339
\c@citecounter=\count340
\c@maxcitecounter=\count341
\c@savedcitecounter=\count342
\c@uniquelist=\count343
\c@uniquename=\count344
\c@refsection=\count345
\c@refsegment=\count346
\c@maxextratitle=\count347
\c@maxextratitleyear=\count348
\c@maxextraname=\count349
\c@maxextradate=\count350
\c@maxextraalpha=\count351
\c@abbrvpenalty=\count352
\c@highnamepenalty=\count353
\c@lownamepenalty=\count354
\c@maxparens=\count355
\c@parenlevel=\count356
\blx@tempcnta=\count357
\blx@tempcntb=\count358
\blx@tempcntc=\count359
\c@blx@maxsection=\count360
\blx@maxsegment@0=\count361
\blx@notetype=\count362
\blx@parenlevel@text=\count363
\blx@parenlevel@foot=\count364
\blx@sectionciteorder@0=\count365
\blx@sectionciteorderinternal@0=\count366
\blx@entrysetcounter=\count367
\blx@biblioinstance=\count368
\labelnumberwidth=\skip72
\labelalphawidth=\skip73
\biblabelsep=\skip74
\bibitemsep=\skip75
\bibnamesep=\skip76
\bibinitsep=\skip77
\bibparsep=\skip78

! LaTeX Error: Command \bibhang already defined.
               Or name \end... illegal, see p.192 of the manual.

See the LaTeX manual or LaTeX Companion for explanation.
Type  H <return>  for immediate help.
 ...                                              
                                                  
l.908 \newlength{\bibhang}
                          
? 
\blx@bcfin=\read3
\blx@bcfout=\write3
\blx@langwohyphens=\language9
\c@mincomprange=\count369
\c@maxcomprange=\count370
\c@mincompwidth=\count371
Package biblatex Info: Trying to load biblatex default data model...
Package biblatex Info: ... file 'blx-dm.def' found.
(/usr/share/texlive/texmf-dist/tex/latex/biblatex/blx-dm.def
File: blx-dm.def 2022/07/12 v3.18b biblatex localization (PK/MW)
)
Package biblatex Info: Trying to load biblatex custom data model...
Package biblatex Info: ... file 'biblatex-dm.cfg' not found.
\c@afterword=\count372
\c@savedafterword=\count373
\c@annotator=\count374
\c@savedannotator=\count375
\c@author=\count376
\c@savedauthor=\count377
\c@bookauthor=\count378
\c@savedbookauthor=\count379
\c@commentator=\count380
\c@savedcommentator=\count381
\c@editor=\count382
\c@savededitor=\count383
\c@editora=\count384
\c@savededitora=\count385
\c@editorb=\count386
\c@savededitorb=\count387
\c@editorc=\count388
\c@savededitorc=\count389
\c@foreword=\count390
\c@savedforeword=\count391
\c@holder=\count392
\c@savedholder=\count393
\c@introduction=\count394
\c@savedintroduction=\count395
\c@namea=\count396
\c@savednamea=\count397
\c@nameb=\count398
\c@savednameb=\count399
\c@namec=\count400
\c@savednamec=\count401
\c@translator=\count402
\c@savedtranslator=\count403
\c@shortauthor=\count404
\c@savedshortauthor=\count405
\c@shorteditor=\count406
\c@savedshorteditor=\count407
\c@labelname=\count408
\c@savedlabelname=\count409
\c@institution=\count410
\c@savedinstitution=\count411
\c@lista=\count412
\c@savedlista=\count413
\c@listb=\count414
\c@savedlistb=\count415
\c@listc=\count416
\c@savedlistc=\count417
\c@listd=\count418
\c@savedlistd=\count419
\c@liste=\count420
\c@savedliste=\count421
\c@listf=\count422
\c@savedlistf=\count423
\c@location=\count424
\c@savedlocation=\count425
\c@organization=\count426
\c@savedorganization=\count427
\c@origlocation=\count428
\c@savedoriglocation=\count429
\c@origpublisher=\count430
\c@savedorigpublisher=\count431
\c@publisher=\count432
\c@savedpublisher=\count433
\c@language=\count434
\c@savedlanguage=\count435
\c@origlanguage=\count436
\c@savedoriglanguage=\count437
\c@pageref=\count438
\c@savedpageref=\count439
\shorthandwidth=\skip79
\shortjournalwidth=\skip80
\shortserieswidth=\skip81
\shorttitlewidth=\skip82
\shortauthorwidth=\skip83
\shorteditorwidth=\skip84
\locallabelnumberwidth=\skip85
\locallabelalphawidth=\skip86
\localshorthandwidth=\skip87
\localshortjournalwidth=\skip88
\localshortserieswidth=\skip89
\localshorttitlewidth=\skip90
\localshortauthorwidth=\skip91
\localshorteditorwidth=\skip92


! LaTeX Error: Command \citename already defined.
               Or name \end... illegal, see p.192 of the manual.

See the LaTeX manual or LaTeX Companion for explanation.
Type  H <return>  for immediate help.
 ...                                              
                                                  
l.12599 ...*{\citename}{\blx@citexpunct{citename}}
                                                  
? 
Package biblatex Info: Trying to load compatibility code...
Package biblatex Info: ... file 'blx-compat.def' found.
(/usr/share/texlive/texmf-dist/tex/latex/biblatex/blx-compat.def
File: blx-compat.def 2022/07/12 v3.18b biblatex compatibility (PK/MW)
)
Package biblatex Info: Trying to load generic definitions...
Package biblatex Info: ... file 'biblatex.def' found.

(/usr/share/texlive/texmf-dist/tex/latex/biblatex/biblatex.def
File: biblatex.def 2022/07/12 v3.18b biblatex compatibility (PK/MW)
\c@textcitecount=\count440
\c@textcitetotal=\count441
\c@textcitemaxnames=\count442
\c@biburlbigbreakpenalty=\count443
\c@biburlbreakpenalty=\count444
\c@biburlnumpenalty=\count445
\c@biburlucpenalty=\count446
\c@biburllcpenalty=\count447
\biburlbigskip=\muskip18
\biburlnumskip=\muskip19
\biburlucskip=\muskip20
\biburllcskip=\muskip21


! LaTeX Error: Command \bibfont already defined.
               Or name \end... illegal, see p.192 of the manual.

See the LaTeX manual or LaTeX Companion for explanation.
Type  H <return>  for immediate help.
 ...                                              
                                                  
l.339 ...ommand*{\bibfont}{\normalfont\normalsize}
                                                  
? 
\c@smartand=\count448

Package biblatex Warning: Redefining '\citeauthor'.


Package biblatex Warning: Redefining '\citeyear'.


! LaTeX Error: Command \Citeauthor already defined.
               Or name \end... illegal, see p.192 of the manual.

See the LaTeX manual or LaTeX Companion for explanation.
Type  H <return>  for immediate help.
 ...                                              
                                                  
l.2301 ...e\citeauthor*}{\bibsentence\citeauthor}}
                                                  
? 
)
Package biblatex Info: Trying to load bibliography style 'numeric'...
Package biblatex Info: ... file 'numeric.bbx' found.
 (/usr/share/texlive/texmf-dist/tex/latex/biblatex/bbx/numeric.bbx
File: numeric.bbx 2022/07/12 v3.18b biblatex bibliography style (PK/MW)
Package biblatex Info: Trying to load bibliography style 'standard'...
Package biblatex Info: ... file 'standard.bbx' found.

(/usr/share/texlive/texmf-dist/tex/latex/biblatex/bbx/standard.bbx
File: standard.bbx 2022/07/12 v3.18b biblatex bibliography style (PK/MW)
\c@bbx:relatedcount=\count449
\c@bbx:relatedtotal=\count450
))
Package biblatex Info: Trying to load citation style 'numeric'...
Package biblatex Info: ... file 'numeric.cbx' found.

(/usr/share/texlive/texmf-dist/tex/latex/biblatex/cbx/numeric.cbx
File: numeric.cbx 2022/07/12 v3.18b biblatex citation style (PK/MW)
Package biblatex Info: Redefining '\cite'.
Package biblatex Info: Redefining '\parencite'.
Package biblatex Info: Redefining '\footcite'.
Package biblatex Info: Redefining '\footcitetext'.
Package biblatex Info: Redefining '\smartcite'.
Package biblatex Info: Redefining '\supercite'.
Package biblatex Info: Redefining '\textcite'.
Package biblatex Info: Redefining '\textcites'.
Package biblatex Info: Redefining '\cites'.
Package biblatex Info: Redefining '\parencites'.
Package biblatex Info: Redefining '\smartcites'.
)
Package biblatex Info: Trying to load configuration file...
Package biblatex Info: ... file 'biblatex.cfg' found.

(/usr/share/texlive/texmf-dist/tex/latex/biblatex/biblatex.cfg
File: biblatex.cfg 
)
Package biblatex Info: Input encoding 'utf8' detected.
Package biblatex Info: Document encoding is UTF8 ....

(/usr/share/texlive/texmf-dist/tex/latex/l3kernel/expl3.sty
Package: expl3 2023-01-16 L3 programming layer (loader) 

(/usr/share/texlive/texmf-dist/tex/latex/l3backend/l3backend-pdftex.def
File: l3backend-pdftex.def 2023-01-16 L3 backend support: PDF output (pdfTeX)
\l__color_backend_stack_int=\count451
\l__pdf_internal_box=\box71
))
Package biblatex Info: ... and expl3
(biblatex)             2023-01-16 L3 programming layer (loader) 
(biblatex)             is new enough (at least 2020/04/06),
(biblatex)             setting 'casechanger=expl3'.

(/usr/share/texlive/texmf-dist/tex/latex/biblatex/blx-case-expl3.sty
(/usr/share/texlive/texmf-dist/tex/latex/l3packages/xparse/xparse.sty
Package: xparse 2023-01-16 L3 Experimental document command parser
)
Package: blx-case-expl3 2022/07/12 v3.18b expl3 case changing code for biblatex

))
(/usr/share/texlive/texmf-dist/tex/generic/epsf/epsf.tex
This is `epsf.tex' v2.7.4 <14 February 2011>
\epsffilein=\read4
\epsfframemargin=\dimen262
\epsfframethickness=\dimen263
\epsfrsize=\dimen264
\epsftmp=\dimen265
\epsftsize=\dimen266
\epsfxsize=\dimen267
\epsfysize=\dimen268
\pspoints=\dimen269
)
\c@bean=\count452


Package biblatex Warning: 'babel/polyglossia' detected but 'csquotes' missing.
(biblatex)                Loading 'csquotes' recommended.

\@quotelevel=\count453
\@quotereset=\count454
LaTeX Font Info:    Trying to load font information for OT1+ptm on input line 1
29.
(/usr/share/texlive/texmf-dist/tex/latex/psnfss/ot1ptm.fd
File: ot1ptm.fd 2001/06/04 font definitions for OT1/ptm.
)

LaTeX Warning: Unused global option(s):
    [A4,nocenter,noupper,bold].

(./main.aux (./1capa.aux) (./2agrad.aux) (./cap1_introduction.aux)
(./cap2_revisaobib.aux

LaTeX Warning: Label `MSD_center1' multiply defined.


LaTeX Warning: Label `Ring scheme' multiply defined.

) (./cap3_metodologia.aux

LaTeX Warning: Label `Ring scheme' multiply defined.


LaTeX Warning: Label `energy_temporal2' multiply defined.


LaTeX Warning: Label `energy_eq3' multiply defined.


LaTeX Warning: Label `1' multiply defined.


LaTeX Warning: Label `2' multiply defined.

) (./cap4_resultados.aux) (./cap5_conclusion.aux))
\openout1 = `main.aux'.

LaTeX Font Info:    Checking defaults for OML/cmm/m/it on input line 129.
LaTeX Font Info:    ... okay on input line 129.
LaTeX Font Info:    Checking defaults for OMS/cmsy/m/n on input line 129.
LaTeX Font Info:    ... okay on input line 129.
LaTeX Font Info:    Checking defaults for OT1/cmr/m/n on input line 129.
LaTeX Font Info:    ... okay on input line 129.
LaTeX Font Info:    Checking defaults for T1/cmr/m/n on input line 129.
LaTeX Font Info:    ... okay on input line 129.
LaTeX Font Info:    Checking defaults for TS1/cmr/m/n on input line 129.
LaTeX Font Info:    ... okay on input line 129.
LaTeX Font Info:    Checking defaults for OMX/cmex/m/n on input line 129.
LaTeX Font Info:    ... okay on input line 129.
LaTeX Font Info:    Checking defaults for U/cmr/m/n on input line 129.
LaTeX Font Info:    ... okay on input line 129.
LaTeX Font Info:    Checking defaults for PD1/pdf/m/n on input line 129.
LaTeX Font Info:    ... okay on input line 129.
LaTeX Font Info:    Checking defaults for PU/pdf/m/n on input line 129.
LaTeX Font Info:    ... okay on input line 129.
Package hyperref Info: Link coloring OFF on input line 129.
 (./main.out) (./main.out)
\@outlinefile=\write4
\openout4 = `main.out'.


(/usr/share/texlive/texmf-dist/tex/context/base/mkii/supp-pdf.mkii
[Loading MPS to PDF converter (version 2006.09.02).]
\scratchcounter=\count455
\scratchdimen=\dimen270
\scratchbox=\box72
\nofMPsegments=\count456
\nofMParguments=\count457
\everyMPshowfont=\toks32
\MPscratchCnt=\count458
\MPscratchDim=\dimen271
\MPnumerator=\count459
\makeMPintoPDFobject=\count460
\everyMPtoPDFconversion=\toks33
) (/usr/share/texlive/texmf-dist/tex/latex/pdflscape/pdflscape.sty
Package: pdflscape 2022-10-27 v0.13 Display of landscape pages in PDF

(/usr/share/texlive/texmf-dist/tex/latex/pdflscape/pdflscape-nometadata.sty
Package: pdflscape-nometadata 2022-10-28 v0.13 Display of landscape pages in PD
F (HO)

(/usr/share/texlive/texmf-dist/tex/latex/graphics/lscape.sty
Package: lscape 2020/05/28 v3.02 Landscape Pages (DPC)
)
Package pdflscape Info: Auto-detected driver: pdftex on input line 81.
))
LaTeX Info: Redefining \celsius on input line 129.
Package gensymb Info: Faking symbols for \degree and \celsius on input line 129
.


Package gensymb Warning: Not defining \perthousand.

LaTeX Info: Redefining \ohm on input line 129.
Package gensymb Info: Using \upOmega for \ohm on input line 129.

Package gensymb Warning: Not defining \micro.

Package caption Info: Begin \AtBeginDocument code.
Package caption Info: subfig package v1.3 is loaded.
Package caption Info: threeparttable package is loaded.
Package caption Info: wrapfig package is loaded.
Package caption Info: End \AtBeginDocument code.
Package biblatex Info: Trying to load language 'nil'...
Package biblatex Info: ... file 'nil.lbx' not found.

Package biblatex Warning: Language 'nil' not supported.
(biblatex)                Using dummy definitions on input line 129.

Package biblatex Info: Input encoding 'utf8' detected.
Package biblatex Info: Automatic encoding selection.
(biblatex)             Assuming data encoding 'utf8'.
\openout3 = `main.bcf'.

Package biblatex Info: Trying to load bibliographic data...
Package biblatex Info: ... file 'main.bbl' found.
(./main.bbl

Package biblatex Warning: The following entry could not be found
(biblatex)                in the database:
(biblatex)                PhysRevLett.121.248003
(biblatex)                Please verify the spelling and rerun
(biblatex)                LaTeX afterwards.


Package biblatex Warning: The following entry could not be found
(biblatex)                in the database:
(biblatex)                PhysRevX.6.021011
(biblatex)                Please verify the spelling and rerun
(biblatex)                LaTeX afterwards.


Package biblatex Warning: The following entry could not be found
(biblatex)                in the database:
(biblatex)                purcell1977life
(biblatex)                Please verify the spelling and rerun
(biblatex)                LaTeX afterwards.


Package biblatex Warning: The following entry could not be found
(biblatex)                in the database:
(biblatex)                sarkar2021minimal
(biblatex)                Please verify the spelling and rerun
(biblatex)                LaTeX afterwards.


Package biblatex Warning: The following entry could not be found
(biblatex)                in the database:
(biblatex)                szabo
(biblatex)                Please verify the spelling and rerun
(biblatex)                LaTeX afterwards.

)
Package biblatex Info: Reference section=0 on input line 129.
Package biblatex Info: Reference segment=0 on input line 129.
\openout2 = `1capa.aux'.

 (./1capa.tex
LaTeX Font Info:    Trying to load font information for OT1+ztmcm on input line
 12.
 (/usr/share/texlive/texmf-dist/tex/latex/psnfss/ot1ztmcm.fd
File: ot1ztmcm.fd 2000/01/03 Fontinst v1.801 font definitions for OT1/ztmcm.
)
LaTeX Font Info:    Trying to load font information for OML+ztmcm on input line
 12.

(/usr/share/texlive/texmf-dist/tex/latex/psnfss/omlztmcm.fd
File: omlztmcm.fd 2000/01/03 Fontinst v1.801 font definitions for OML/ztmcm.
)
LaTeX Font Info:    Trying to load font information for OMS+ztmcm on input line
 12.

(/usr/share/texlive/texmf-dist/tex/latex/psnfss/omsztmcm.fd
File: omsztmcm.fd 2000/01/03 Fontinst v1.801 font definitions for OMS/ztmcm.
)
LaTeX Font Info:    Trying to load font information for OMX+ztmcm on input line
 12.

(/usr/share/texlive/texmf-dist/tex/latex/psnfss/omxztmcm.fd
File: omxztmcm.fd 2000/01/03 Fontinst v1.801 font definitions for OMX/ztmcm.
)
LaTeX Font Info:    Font shape `OT1/ptm/bx/n' in size <17.28> not available
(Font)              Font shape `OT1/ptm/b/n' tried instead on input line 12.
LaTeX Font Info:    Font shape `OT1/ptm/bx/n' in size <12> not available
(Font)              Font shape `OT1/ptm/b/n' tried instead on input line 12.
LaTeX Font Info:    Font shape `OT1/ptm/bx/n' in size <10> not available
(Font)              Font shape `OT1/ptm/b/n' tried instead on input line 12.
LaTeX Font Info:    Trying to load font information for TS1+ptm on input line 1
2.

(/usr/share/texlive/texmf-dist/tex/latex/psnfss/ts1ptm.fd
File: ts1ptm.fd 2001/06/04 font definitions for TS1/ptm.
)
LaTeX Font Info:    Font shape `OT1/ptm/bx/n' in size <7.4> not available
(Font)              Font shape `OT1/ptm/b/n' tried instead on input line 12.
LaTeX Font Info:    Font shape `OT1/ptm/bx/n' in size <6> not available
(Font)              Font shape `OT1/ptm/b/n' tried instead on input line 12.
 [1


{/var/lib/texmf/fonts/map/pdftex/updmap/pdftex.map}])
\openout2 = `2agrad.aux'.

 (./2agrad.tex
LaTeX Font Info:    Font shape `OT1/ptm/bx/n' in size <9> not available
(Font)              Font shape `OT1/ptm/b/n' tried instead on input line 8.
LaTeX Font Info:    Font shape `OT1/ptm/bx/n' in size <7> not available
(Font)              Font shape `OT1/ptm/b/n' tried instead on input line 8.
)
pdfTeX warning (ext4): destination with the same identifier (name{page.i}) has 
been already used, duplicate ignored
<to be read again> 
                   \relax 
l.136 \include{2agrad}
                       [1




] (./main.toc)
\tf@toc=\write5
\openout5 = `main.toc'.

 [1



]
\openout2 = `cap1_introduction.aux'.

 (./cap1_introduction.tex
Chapter 1.
) [2


]
\openout2 = `cap2_revisaobib.aux'.

 (./cap2_revisaobib.tex
Chapter 2.

Overfull \hbox (17.64828pt too wide) in paragraph at lines 10--11
[]\OT1/ptm/m/n/12 Sistemas baseados em agentes s[]ao considerados como um novo 
paradigma, permitindo um importante
 []


Overfull \hbox (6.46751pt too wide) in paragraph at lines 10--11
\OT1/ptm/m/n/12 dois modelos de part[]^^Pcula ativa onde movimento coletivo sur
ge a partir do alinhamento das velocidades.
 []

[3




]
Overfull \hbox (0.46782pt too wide) in paragraph at lines 14--15
\OT1/ptm/m/n/12 err[]atico de pequenas part[]^^Pculas de gr[]aos de p[]olen ime
rso em um l[]^^Pquido em 1827 [[]8[]], ele as considerou
 []


Overfull \hbox (4.93172pt too wide) in paragraph at lines 14--15
\OT1/ptm/m/n/12 daquelas entidades. Apesar de seu nome estar associado ao fen[]
omeno f[]^^Psico do movimento Browniano,
 []


Overfull \hbox (35.74815pt too wide) in paragraph at lines 14--15
\OT1/ptm/m/n/12 segunda Lei de Newton, a equa[][]ao de Langevin usada para form
ular o processo f[]^^Psico de Ornstein{Uhlenbeck
 []

[4] [5]
Overfull \hbox (5.38731pt too wide) in paragraph at lines 49--51
\OT1/ptm/m/n/12 part[]^^Pculas Brownianas e ambas descrevem o processo estoc[]a
stico de Ornstein-Uhlenbeck [[]4[]]. Contudo,
 []


Overfull \hbox (10.22629pt too wide) in paragraph at lines 61--63
\OT1/ptm/m/n/12 onde $\OML/ztmcm/m/it/12 ^^V \OT1/ztmcm/m/n/12 = 1\OML/ztmcm/m/
it/12 =^^M$ \OT1/ptm/m/n/12 chama-se par[]ametro de mobilidade. Esse limite tam
b[]em []e chamado de limite Aristot[]elico,
 []

<brownian_particle.png, id=192, 791.95876pt x 782.925pt>
File: brownian_particle.png Graphic file (type png)
<use brownian_particle.png>
Package pdftex.def Info: brownian_particle.png  used on input line 66.
(pdftex.def)             Requested size: 791.95683pt x 782.9231pt.

LaTeX Warning: `!h' float specifier changed to `!ht'.

[6] [7 <./brownian_particle.png>]
<trajectories_msd.png, id=225, 1501.61pt x 562.1pt>
File: trajectories_msd.png Graphic file (type png)
<use trajectories_msd.png>
Package pdftex.def Info: trajectories_msd.png  used on input line 109.
(pdftex.def)             Requested size: 1501.60635pt x 562.09863pt.

Overfull \hbox (1.68698pt too wide) in paragraph at lines 109--110
 [][] 
 []

[8 <./trajectories_msd.png>] [9]
Overfull \hbox (12.80176pt too wide) in paragraph at lines 142--144
\OT1/ptm/m/n/12 O deslocamento quadr[]atico m[]edio da posi[][]ao do centro de 
massa do sistema de N part[]^^Pculas Brownianas,
 []


Overfull \hbox (2.51904pt too wide) in paragraph at lines 163--165
\OT1/ptm/m/n/12 angular. Devido []as sucessivas colis[]oes com os []atomos/mol[
]eculas que constituem o fluido, a velocidade
 []


Overfull \hbox (33.7987pt too wide) in paragraph at lines 163--165
\OT1/ptm/m/n/12 sofre varia[][]oes angulares estoc[]asticas $\OML/ztmcm/m/it/12
 ^^X[]\OT1/ztmcm/m/n/12 (\OML/ztmcm/m/it/12 t\OT1/ztmcm/m/n/12 )$ \OT1/ptm/m/n/
12 de intensidade $\OML/ztmcm/m/it/12 S$\OT1/ptm/m/n/12 , m[]edia zero e segund
o momento $[] \OT1/ztmcm/m/n/12 =
 []

[10]
<brownian_orientation.png, id=294, 789.95125pt x 740.7675pt>
File: brownian_orientation.png Graphic file (type png)
<use brownian_orientation.png>
Package pdftex.def Info: brownian_orientation.png  used on input line 168.
(pdftex.def)             Requested size: 789.94931pt x 740.76569pt.


LaTeX Warning: Reference `lamelipódio' on page 11 undefined on input line 188.



Overfull \hbox (1.85883pt too wide) in paragraph at lines 188--190
\OT1/ptm/m/n/12 possuem apenas atributos passivos, ou seja, sua din[]amica []e 
determinada pelas for[]as externas atuantes.
 []


Overfull \hbox (5.05106pt too wide) in paragraph at lines 188--190
\OT1/ptm/m/n/12 Como vimos na Fig. []2.2[], as trajet[]orias de uma c[]elula as
semelham-se []aquelas observadas no movimento
 []


Overfull \hbox (8.2306pt too wide) in paragraph at lines 188--190
\OT1/ptm/m/n/12 part[]^^Pcula continuar em movimento ret[]^^Plineo uniforme, de
ntro de um tempo caracter[]^^Pstico de persist[]encia
 []


Overfull \hbox (6.78072pt too wide) in paragraph at lines 188--190
\OML/ztmcm/m/it/12 ^^\[]$\OT1/ptm/m/n/12 , ap[]os uma for[]a externa atuar sobr
e ela (efeito inercial). Sistemas biol[]ogicos apresentam movimento
 []


Overfull \hbox (18.50269pt too wide) in paragraph at lines 188--190
\OT1/ptm/m/n/12 (suprimentos, comida e etc) e transforma-la em movimento direci
onado. Como discutimos anteriormente,
 []

[11 <./brownian_orientation.png>] [12] [13]
<active_brownian_particle.png, id=340, 726.715pt x 520.94624pt>
File: active_brownian_particle.png Graphic file (type png)
<use active_brownian_particle.png>
Package pdftex.def Info: active_brownian_particle.png  used on input line 258.
(pdftex.def)             Requested size: 726.71321pt x 520.94498pt.
 [14] [15 <./active_brownian_particle.png>]
Overfull \hbox (5.86523pt too wide) in paragraph at lines 295--296
[]\OT1/ptm/m/n/12 A vari[]avel angular estoc[]astica $\OML/ztmcm/m/it/12 ^^R[]\
OT1/ztmcm/m/n/12 (\OML/ztmcm/m/it/12 t\OT1/ztmcm/m/n/12 )$ []\OT1/ptm/m/n/12 e 
um processo de Wiener [[]15[]] e t[]em uma distribui[][]ao gaussiana.
 []


Overfull \hbox (1.07317pt too wide) in paragraph at lines 309--311
\OT1/ptm/m/n/12 de tempo caracter[]^^Psticos, $\OML/ztmcm/m/it/12 ^^\[] \OT1/zt
mcm/m/n/12 = \OML/ztmcm/m/it/12 m=^^M$\OT1/ptm/m/n/12 , durante os quais a part
[]^^Pcula move-se em linha reta com velocidade
 []

[16]
Overfull \hbox (12.94868pt too wide) in paragraph at lines 325--327
\OT1/ptm/m/n/12 o movimento []e difusivo com constante de difus[]ao t[]ermica $
\OML/ztmcm/m/it/12 D[]$\OT1/ptm/m/n/12 . Em tempos intermedi[]arios, $\OML/ztmc
m/m/it/12 tv[]=\OT1/ztmcm/m/n/12 (2\OML/ztmcm/m/it/12 dD[]\OT1/ztmcm/m/n/12 ) \
OML/ztmcm/m/it/12 <
 []

[17]
Overfull \hbox (3.99442pt too wide) in paragraph at lines 342--343
\OT1/ptm/m/n/12 realista da din[]amica celular adicionando atributos ativos a p
art[]^^Pcula Browniana, estende a possibilidade
 []

<ABP.png, id=427, 1350.04375pt x 692.5875pt>
File: ABP.png Graphic file (type png)
<use ABP.png>
Package pdftex.def Info: ABP.png  used on input line 346.
(pdftex.def)             Requested size: 1350.04047pt x 692.5858pt.

Overfull \hbox (10.38783pt too wide) in paragraph at lines 352--353
[]\OT1/ptm/m/n/12 A equa[][]ao de Langevin para a posi[][]ao do centro de massa
 de um sistema de $\OML/ztmcm/m/it/12 N$ \OT1/ptm/m/n/12 part[]^^Pculas Brownia
nas
 []

[18 <./ABP.png>]
Overfull \hbox (13.45103pt too wide) in paragraph at lines 376--377
\OT1/ptm/m/n/12 termodin[]amico. Na natureza, h[]a uma variedade de sistemas cu
jos comportamentos podem ser explicados
 []


Overfull \hbox (6.87518pt too wide) in paragraph at lines 379--380
\OT1/ptm/m/n/12 Brownianas ativas, o qual possibilita deduzir uma equa[][]ao de
 Langevin ativa para a din[]amica individual
 []

[19]
<vicsek_model.png, id=464, 892.33376pt x 782.925pt>
File: vicsek_model.png Graphic file (type png)
<use vicsek_model.png>
Package pdftex.def Info: vicsek_model.png  used on input line 395.
(pdftex.def)             Requested size: 892.33159pt x 782.9231pt.


LaTeX Warning: `!h' float specifier changed to `!ht'.

<transição_vicsek.png, id=465, 1231.60126pt x 595.22375pt>
File: transição_vicsek.png Graphic file (type png)
<use transição_vicsek.png>
Package pdftex.def Info: transição_vicsek.png  used on input line 401.
(pdftex.def)             Requested size: 1231.59825pt x 595.2223pt.

LaTeX Warning: `!h' float specifier changed to `!ht'.

[20]
Overfull \hbox (1.87587pt too wide) in paragraph at lines 408--410
\OT1/ptm/m/n/12 onde o s[]^^Pmbolo $[][]$ denota m[]edia temporal no estado est
acion[]ario do sistema. Quando as velocidades
 []

[21 <./vicsek_model.png> <./transição_vicsek.png>]
<szabo_experimento.png, id=497, 1334.9875pt x 560.0925pt>
File: szabo_experimento.png Graphic file (type png)
<use szabo_experimento.png>
Package pdftex.def Info: szabo_experimento.png  used on input line 419.
(pdftex.def)             Requested size: 1334.98427pt x 560.09113pt.
 [22 <./szabo_experimento.png>]
Overfull \hbox (17.71992pt too wide) in paragraph at lines 433--434
[]\OT1/ptm/m/n/12 A Eq. [] corresponde a uma equa[][]ao de Langevin para part[]
^^Pculas ativas no limite sobreamortecido
 []

<szabo_esquema.png, id=519, 994.71625pt x 543.02875pt>
File: szabo_esquema.png Graphic file (type png)
<use szabo_esquema.png>
Package pdftex.def Info: szabo_esquema.png  used on input line 437.
(pdftex.def)             Requested size: 994.71382pt x 543.0274pt.
[23 <./szabo_esquema.png>]
<szabo_simulations.png, id=534, 885.3075pt x 736.7525pt>
File: szabo_simulations.png Graphic file (type png)
<use szabo_simulations.png>
Package pdftex.def Info: szabo_simulations.png  used on input line 452.
(pdftex.def)             Requested size: 885.30533pt x 736.7507pt.

Overfull \hbox (5.6632pt too wide) in paragraph at lines 456--457
\OT1/ptm/m/n/12 confinadas em uma regi[]ao (Fig. []2.11[]a). Diferente das part
[]^^Pculas ativas de Szab[]o, part[]^^Pculas Brownianas
 []

[24 <./szabo_simulations.png>]
<szabo_circular.png, id=552, 645.41125pt x 339.2675pt>
File: szabo_circular.png Graphic file (type png)
<use szabo_circular.png>
Package pdftex.def Info: szabo_circular.png  used on input line 460.
(pdftex.def)             Requested size: 645.40968pt x 339.26666pt.

Overfull \hbox (3.52669pt too wide) in paragraph at lines 466--467
\OT1/ptm/m/n/12 l[]^^Pquidos ativos, a maneira mais simples de criar um s[]olid
o ativo []e impor rigidez mec[]anica compactando
 []


Overfull \hbox (21.05913pt too wide) in paragraph at lines 466--467
\OT1/ptm/m/n/12 reorganizar espacialmente, e o sistema como um todo come[]a a e
xibir propriedades el[]asticas. Dependendo
 []


Overfull \hbox (22.48616pt too wide) in paragraph at lines 466--467
\OT1/ptm/m/n/12 ditam a din[]amica de polaridade, consistentemente com os siste
mas biol[]ogicos mencionados anteriormente.
 []

[25 <./szabo_circular.png>]
<silke.png, id=560, 834.11626pt x 707.64375pt>
File: silke.png Graphic file (type png)
<use silke.png>
Package pdftex.def Info: silke.png  used on input line 477.
(pdftex.def)             Requested size: 834.11423pt x 707.64203pt.
 [26 <./silke.png>] [27]
<voronoi.png, id=573, 1060.96375pt x 454.69875pt>
File: voronoi.png Graphic file (type png)
<use voronoi.png>
Package pdftex.def Info: voronoi.png  used on input line 493.
(pdftex.def)             Requested size: 1060.96115pt x 454.69763pt.
 [28 <./voronoi.png>]
<boromand_1.png, id=580, 1039.885pt x 716.6775pt>
File: boromand_1.png Graphic file (type png)
<use boromand_1.png>
Package pdftex.def Info: boromand_1.png  used on input line 505.
(pdftex.def)             Requested size: 1039.88246pt x 716.67577pt.
<boromand_2.png, id=581, 1240.635pt x 428.60126pt>
File: boromand_2.png Graphic file (type png)
<use boromand_2.png>
Package pdftex.def Info: boromand_2.png  used on input line 511.
(pdftex.def)             Requested size: 1240.63197pt x 428.6002pt.

Underfull \hbox (badness 1394) in paragraph at lines 512--512
[]\OT1/ptm/b/n/10 Figure 2.15: |\OT1/ptm/m/n/10 Instant[]aneos dos resultados d
o modelo em diferentes fra[][]oes de empacotamento congestionado
 []


LaTeX Warning: `!h' float specifier changed to `!ht'.


Overfull \hbox (8.07043pt too wide) in paragraph at lines 517--518
[]\OT1/ptm/m/n/12 onde $\OML/ztmcm/m/it/12 l[]i$ []\OT1/ptm/m/n/12 e o comprime
nto da $\OML/ztmcm/m/it/12 i$\OT1/ptm/m/n/12 -[]esima aresta da $\OML/ztmcm/m/i
t/12 m$\OT1/ptm/m/n/12 -[]esima c[]elula, $\OML/ztmcm/m/it/12 k[]$ []\OT1/ptm/m
/n/12 e o m[]odulo de []area correspondente
 []

[29 <./boromand_1.png>]
<anel.png, id=592, 960.58875pt x 592.2125pt>
File: anel.png Graphic file (type png)
<use anel.png>
Package pdftex.def Info: anel.png  used on input line 530.
(pdftex.def)             Requested size: 385.60147pt x 237.73022pt.


LaTeX Warning: `!h' float specifier changed to `!ht'.

[30 <./boromand_2.png>] [31 <./anel.png>]
<fig_paper2021.png, id=613, 1053.9375pt x 746.79pt>
File: fig_paper2021.png Graphic file (type png)
<use fig_paper2021.png>
Package pdftex.def Info: fig_paper2021.png  used on input line 584.
(pdftex.def)             Requested size: 385.60147pt x 273.2313pt.
)
Overfull \hbox (23.61075pt too wide) in paragraph at lines 589--150
[]\OT1/ptm/m/n/12 As simula[][]oes computacionais mostraram que estados coletiv
os rotacionais, translacionais e alternados
 []

[32 <./fig_paper2021.png>] [33]
\openout2 = `cap3_metodologia.aux'.

 (./cap3_metodologia.tex
Chapter 3.

LaTeX Warning: Citation 'szabo' on page 34 undefined on input line 6.


LaTeX Warning: Citation 'sarkar2021minimal' on page 34 undefined on input line 
6.


LaTeX Warning: Citation 'purcell1977life' on page 34 undefined on input line 6.



LaTeX Warning: Citation 'szabo' on page 34 undefined on input line 6.


Overfull \hbox (5.43504pt too wide) in paragraph at lines 6--7
\OT1/ptm/m/n/12 anteriormente, o modelo de an[]eis composto de part[]^^Pculas p
assivas conectadas por molas foi introduzido
 []


Overfull \hbox (29.31433pt too wide) in paragraph at lines 6--7
\OT1/ptm/m/n/12 uma part[]^^Pcula ativa com autoalinhamento, permitindo o surgi
mento de estados de coletividade translacionais
 []

[34




]

LaTeX Warning: Reference `rings_scheme' on page 35 undefined on input line 26.

[35]
<configuration_sistema.png, id=639, 1323.94624pt x 753.81625pt>
File: configuration_sistema.png Graphic file (type png)
<use configuration_sistema.png>
Package pdftex.def Info: configuration_sistema.png  used on input line 48.
(pdftex.def)             Requested size: 385.60147pt x 219.5443pt.


LaTeX Warning: Reference `rings_scheme' on page 36 undefined on input line 57.

[36 <./configuration_sistema.png>]

LaTeX Warning: Reference `system_setup' on page 37 undefined on input line 61.

[37]

LaTeX Warning: Citation 'PhysRevLett.121.248003' on page 38 undefined on input 
line 113.


LaTeX Warning: Citation 'PhysRevX.6.021011' on page 38 undefined on input line 
113.

[38]) [39]
\openout2 = `cap4_resultados.aux'.

 (./cap4_resultados.tex
Chapter 4.
) [40




]
\openout2 = `cap5_conclusion.aux'.

 (./cap5_conclusion.tex
Chapter 5.
) [41




]

Package biblatex Warning: Bibliography string 'and' untranslated
(biblatex)                at entry 'wooldridge1995intelligent' on input line 16
4.


Package biblatex Warning: Bibliography string 'in' untranslated
(biblatex)                at entry 'wooldridge1995intelligent' on input line 16
4.


Package biblatex Warning: Using fallback definition for \mkbibdatelong.
(biblatex)                The command should be defined in the .lbx file.
(biblatex)                If you see this message, the .lbx file could not be
(biblatex)                loaded, is faulty or does not contain a definition
(biblatex)                for \mkbibdatelong.


Package biblatex Warning: Bibliography string 'pages' untranslated
(biblatex)                at entry 'wooldridge1995intelligent' on input line 16
4.


Package biblatex Warning: Bibliography string 'and' untranslated
(biblatex)                at entry 'muller1997intelligent' on input line 164.


Package biblatex Warning: Bibliography string 'volume' untranslated
(biblatex)                at entry 'muller1997intelligent' on input line 164.


Package biblatex Warning: Using fallback definition for \mkbibdatelong.
(biblatex)                The command should be defined in the .lbx file.
(biblatex)                If you see this message, the .lbx file could not be
(biblatex)                loaded, is faulty or does not contain a definition
(biblatex)                for \mkbibdatelong.


Overfull \hbox (2.37585pt too wide) in paragraph at lines 171--171
[]\OT1/ptm/m/n/12 Keith E Muller [] Michael J Wooldridge. \OT1/ptm/m/it/12 Inte
lligent Agents III. Agent Theories, Architectures,
 []


Overfull \hbox (21.35417pt too wide) in paragraph at lines 171--171
\OT1/ptm/m/it/12 and Languages: ECAI'96 Workshop (ATAL), Budapest, Hungary, Aug
ust 12-13, 1996, Proceedings\OT1/ptm/m/n/12 .
 []


Package biblatex Warning: Using fallback definition for \mkbibdatelong.
(biblatex)                The command should be defined in the .lbx file.
(biblatex)                If you see this message, the .lbx file could not be
(biblatex)                loaded, is faulty or does not contain a definition
(biblatex)                for \mkbibdatelong.


Package biblatex Warning: Bibliography string 'and' untranslated
(biblatex)                at entry 'uhlenbeck1930theory' on input line 164.


Package biblatex Warning: Bibliography string 'in' untranslated
(biblatex)                at entry 'uhlenbeck1930theory' on input line 164.


Package biblatex Warning: Using fallback definition for \mkbibdatelong.
(biblatex)                The command should be defined in the .lbx file.
(biblatex)                If you see this message, the .lbx file could not be
(biblatex)                loaded, is faulty or does not contain a definition
(biblatex)                for \mkbibdatelong.


Package biblatex Warning: Bibliography string 'page' untranslated
(biblatex)                at entry 'uhlenbeck1930theory' on input line 164.


Package biblatex Warning: Bibliography string 'in' untranslated
(biblatex)                at entry 'furth1920brownsche' on input line 164.


Package biblatex Warning: Using fallback definition for \mkbibdatelong.
(biblatex)                The command should be defined in the .lbx file.
(biblatex)                If you see this message, the .lbx file could not be
(biblatex)                loaded, is faulty or does not contain a definition
(biblatex)                for \mkbibdatelong.


Package biblatex Warning: Bibliography string 'pages' untranslated
(biblatex)                at entry 'furth1920brownsche' on input line 164.


Overfull \hbox (49.85426pt too wide) in paragraph at lines 171--171
[]\OT1/ptm/m/n/12 Reinhold F[]urth. ``Die brownsche bewegung bei ber[]ucksichti
gung einer persistenz der bewegungsrichtung.
 []


Package biblatex Warning: Bibliography string 'andothers' untranslated
(biblatex)                at entry 'vicsek1995novel' on input line 164.


Package biblatex Warning: Bibliography string 'in' untranslated
(biblatex)                at entry 'vicsek1995novel' on input line 164.


Package biblatex Warning: Using fallback definition for \mkbibdatelong.
(biblatex)                The command should be defined in the .lbx file.
(biblatex)                If you see this message, the .lbx file could not be
(biblatex)                loaded, is faulty or does not contain a definition
(biblatex)                for \mkbibdatelong.


Package biblatex Warning: Bibliography string 'page' untranslated
(biblatex)                at entry 'vicsek1995novel' on input line 164.


Package biblatex Warning: Bibliography string 'andothers' untranslated
(biblatex)                at entry 'szabo2006phase' on input line 164.


Package biblatex Warning: Bibliography string 'in' untranslated
(biblatex)                at entry 'szabo2006phase' on input line 164.


Package biblatex Warning: Using fallback definition for \mkbibdatelong.
(biblatex)                The command should be defined in the .lbx file.
(biblatex)                If you see this message, the .lbx file could not be
(biblatex)                loaded, is faulty or does not contain a definition
(biblatex)                for \mkbibdatelong.


Package biblatex Warning: Bibliography string 'page' untranslated
(biblatex)                at entry 'szabo2006phase' on input line 164.


Overfull \hbox (2.08418pt too wide) in paragraph at lines 171--171
[]\OT1/ptm/m/n/12 Balint Szabo []. ``Phase transition in the collective migrati
on of tissue cells: experiment
 []


Package biblatex Warning: Bibliography string 'in' untranslated
(biblatex)                at entry 'brown1828xxvii' on input line 164.


Package biblatex Warning: Using fallback definition for \mkbibdatelong.
(biblatex)                The command should be defined in the .lbx file.
(biblatex)                If you see this message, the .lbx file could not be
(biblatex)                loaded, is faulty or does not contain a definition
(biblatex)                for \mkbibdatelong.


Package biblatex Warning: Bibliography string 'pages' untranslated
(biblatex)                at entry 'brown1828xxvii' on input line 164.


Package biblatex Warning: Bibliography string 'in' untranslated
(biblatex)                at entry 'ingen1784bemerkungen' on input line 164.


Package biblatex Warning: Using fallback definition for \mkbibdatelong.
(biblatex)                The command should be defined in the .lbx file.
(biblatex)                If you see this message, the .lbx file could not be
(biblatex)                loaded, is faulty or does not contain a definition
(biblatex)                for \mkbibdatelong.


Overfull \hbox (14.80672pt too wide) in paragraph at lines 171--171
[]\OT1/ptm/m/n/12 Johann Ingen-Housz. ``Bemerkungen []uber den Gebrauch des Ver
gr[]osserungsglases''. []\OT1/ptm/m/it/12 Vermischte
 []


Package biblatex Warning: Bibliography string 'andothers' untranslated
(biblatex)                at entry 'hartman1994fundamental' on input line 164.


Package biblatex Warning: Bibliography string 'in' untranslated
(biblatex)                at entry 'hartman1994fundamental' on input line 164.


Package biblatex Warning: Using fallback definition for \mkbibdatelong.
(biblatex)                The command should be defined in the .lbx file.
(biblatex)                If you see this message, the .lbx file could not be
(biblatex)                loaded, is faulty or does not contain a definition
(biblatex)                for \mkbibdatelong.


Package biblatex Warning: Bibliography string 'pages' untranslated
(biblatex)                at entry 'hartman1994fundamental' on input line 164.


Package biblatex Warning: Bibliography string 'and' untranslated
(biblatex)                at entry 'gail1970locomotion' on input line 164.


Package biblatex Warning: Bibliography string 'in' untranslated
(biblatex)                at entry 'gail1970locomotion' on input line 164.


Package biblatex Warning: Using fallback definition for \mkbibdatelong.
(biblatex)                The command should be defined in the .lbx file.
(biblatex)                If you see this message, the .lbx file could not be
(biblatex)                loaded, is faulty or does not contain a definition
(biblatex)                for \mkbibdatelong.


Package biblatex Warning: Bibliography string 'page' untranslated
(biblatex)                at entry 'gail1970locomotion' on input line 164.


Overfull \hbox (1.63742pt too wide) in paragraph at lines 171--171
[]\OT1/ptm/m/n/12 Mitchell H Gail [] Charles W Boone. ``The locomotion of mouse
 fibroblasts in tissue culture''.
 []

[42



]

Package biblatex Warning: Bibliography string 'and' untranslated
(biblatex)                at entry 'dunn1987unified' on input line 164.


Package biblatex Warning: Bibliography string 'in' untranslated
(biblatex)                at entry 'dunn1987unified' on input line 164.


Package biblatex Warning: Using fallback definition for \mkbibdatelong.
(biblatex)                The command should be defined in the .lbx file.
(biblatex)                If you see this message, the .lbx file could not be
(biblatex)                loaded, is faulty or does not contain a definition
(biblatex)                for \mkbibdatelong.


Package biblatex Warning: Bibliography string 'pages' untranslated
(biblatex)                at entry 'dunn1987unified' on input line 164.


Package biblatex Warning: Bibliography string 'and' untranslated
(biblatex)                at entry 'maheshwari1998deconstructing' on input line
 164.


Package biblatex Warning: Bibliography string 'in' untranslated
(biblatex)                at entry 'maheshwari1998deconstructing' on input line
 164.


Package biblatex Warning: Using fallback definition for \mkbibdatelong.
(biblatex)                The command should be defined in the .lbx file.
(biblatex)                If you see this message, the .lbx file could not be
(biblatex)                loaded, is faulty or does not contain a definition
(biblatex)                for \mkbibdatelong.


Package biblatex Warning: Bibliography string 'pages' untranslated
(biblatex)                at entry 'maheshwari1998deconstructing' on input line
 164.


Package biblatex Warning: Bibliography string 'and' untranslated
(biblatex)                at entry 'tome2015stochastic' on input line 164.


Package biblatex Warning: Using fallback definition for \mkbibdatelong.
(biblatex)                The command should be defined in the .lbx file.
(biblatex)                If you see this message, the .lbx file could not be
(biblatex)                loaded, is faulty or does not contain a definition
(biblatex)                for \mkbibdatelong.


Package biblatex Warning: Bibliography string 'andothers' untranslated
(biblatex)                at entry 'gardiner1985handbook' on input line 164.


Package biblatex Warning: Bibliography string 'volume' untranslated
(biblatex)                at entry 'gardiner1985handbook' on input line 164.


Package biblatex Warning: Using fallback definition for \mkbibdatelong.
(biblatex)                The command should be defined in the .lbx file.
(biblatex)                If you see this message, the .lbx file could not be
(biblatex)                loaded, is faulty or does not contain a definition
(biblatex)                for \mkbibdatelong.


Package biblatex Warning: Bibliography string 'andothers' untranslated
(biblatex)                at entry 'selmeczi2005cell' on input line 164.


Package biblatex Warning: Bibliography string 'in' untranslated
(biblatex)                at entry 'selmeczi2005cell' on input line 164.


Package biblatex Warning: Using fallback definition for \mkbibdatelong.
(biblatex)                The command should be defined in the .lbx file.
(biblatex)                If you see this message, the .lbx file could not be
(biblatex)                loaded, is faulty or does not contain a definition
(biblatex)                for \mkbibdatelong.


Package biblatex Warning: Bibliography string 'pages' untranslated
(biblatex)                at entry 'selmeczi2005cell' on input line 164.


Overfull \hbox (23.70807pt too wide) in paragraph at lines 171--171
[]\OT1/ptm/m/n/12 David Selmeczi []. ``Cell motility as persistent random motio
n: theories from experiments''.
 []


Package biblatex Warning: Bibliography string 'and' untranslated
(biblatex)                at entry 'schweitzer1998complex' on input line 164.


Package biblatex Warning: Bibliography string 'in' untranslated
(biblatex)                at entry 'schweitzer1998complex' on input line 164.


Package biblatex Warning: Using fallback definition for \mkbibdatelong.
(biblatex)                The command should be defined in the .lbx file.
(biblatex)                If you see this message, the .lbx file could not be
(biblatex)                loaded, is faulty or does not contain a definition
(biblatex)                for \mkbibdatelong.


Package biblatex Warning: Bibliography string 'page' untranslated
(biblatex)                at entry 'schweitzer1998complex' on input line 164.


Package biblatex Warning: Bibliography string 'and' untranslated
(biblatex)                at entry 'li2008persistent' on input line 164.


Package biblatex Warning: Bibliography string 'in' untranslated
(biblatex)                at entry 'li2008persistent' on input line 164.


Package biblatex Warning: Using fallback definition for \mkbibdatelong.
(biblatex)                The command should be defined in the .lbx file.
(biblatex)                If you see this message, the .lbx file could not be
(biblatex)                loaded, is faulty or does not contain a definition
(biblatex)                for \mkbibdatelong.


Package biblatex Warning: Bibliography string 'and' untranslated
(biblatex)                at entry 'codling2008random' on input line 164.


Package biblatex Warning: Bibliography string 'in' untranslated
(biblatex)                at entry 'codling2008random' on input line 164.


Package biblatex Warning: Using fallback definition for \mkbibdatelong.
(biblatex)                The command should be defined in the .lbx file.
(biblatex)                If you see this message, the .lbx file could not be
(biblatex)                loaded, is faulty or does not contain a definition
(biblatex)                for \mkbibdatelong.


Package biblatex Warning: Bibliography string 'pages' untranslated
(biblatex)                at entry 'codling2008random' on input line 164.


Overfull \hbox (2.14479pt too wide) in paragraph at lines 171--171
[]\OT1/ptm/m/n/12 Edward A Codling, Michael J Plank [] Simon Benhamou. ``Random
 walk models in biology''.
 []


Package biblatex Warning: Bibliography string 'andothers' untranslated
(biblatex)                at entry 'potdar2010genetic' on input line 164.


Package biblatex Warning: Bibliography string 'in' untranslated
(biblatex)                at entry 'potdar2010genetic' on input line 164.


Package biblatex Warning: Using fallback definition for \mkbibdatelong.
(biblatex)                The command should be defined in the .lbx file.
(biblatex)                If you see this message, the .lbx file could not be
(biblatex)                loaded, is faulty or does not contain a definition
(biblatex)                for \mkbibdatelong.


Package biblatex Warning: Bibliography string 'and' untranslated
(biblatex)                at entry 'fodor2018statistical' on input line 164.


Package biblatex Warning: Bibliography string 'in' untranslated
(biblatex)                at entry 'fodor2018statistical' on input line 164.


Package biblatex Warning: Using fallback definition for \mkbibdatelong.
(biblatex)                The command should be defined in the .lbx file.
(biblatex)                If you see this message, the .lbx file could not be
(biblatex)                loaded, is faulty or does not contain a definition
(biblatex)                for \mkbibdatelong.


Package biblatex Warning: Bibliography string 'pages' untranslated
(biblatex)                at entry 'fodor2018statistical' on input line 164.


Package biblatex Warning: Bibliography string 'andothers' untranslated
(biblatex)                at entry 'romanczuk2012active' on input line 164.


Package biblatex Warning: Bibliography string 'in' untranslated
(biblatex)                at entry 'romanczuk2012active' on input line 164.


Package biblatex Warning: Using fallback definition for \mkbibdatelong.
(biblatex)                The command should be defined in the .lbx file.
(biblatex)                If you see this message, the .lbx file could not be
(biblatex)                loaded, is faulty or does not contain a definition
(biblatex)                for \mkbibdatelong.


Package biblatex Warning: Bibliography string 'pages' untranslated
(biblatex)                at entry 'romanczuk2012active' on input line 164.


Package biblatex Warning: Bibliography string 'andothers' untranslated
(biblatex)                at entry 'bechinger2016active' on input line 164.


Package biblatex Warning: Bibliography string 'in' untranslated
(biblatex)                at entry 'bechinger2016active' on input line 164.


Package biblatex Warning: Using fallback definition for \mkbibdatelong.
(biblatex)                The command should be defined in the .lbx file.
(biblatex)                If you see this message, the .lbx file could not be
(biblatex)                loaded, is faulty or does not contain a definition
(biblatex)                for \mkbibdatelong.


Package biblatex Warning: Bibliography string 'page' untranslated
(biblatex)                at entry 'bechinger2016active' on input line 164.


Package biblatex Warning: Bibliography string 'in' untranslated
(biblatex)                at entry 'lowen2020inertial' on input line 164.


Package biblatex Warning: Using fallback definition for \mkbibdatelong.
(biblatex)                The command should be defined in the .lbx file.
(biblatex)                If you see this message, the .lbx file could not be
(biblatex)                loaded, is faulty or does not contain a definition
(biblatex)                for \mkbibdatelong.


Package biblatex Warning: Bibliography string 'page' untranslated
(biblatex)                at entry 'lowen2020inertial' on input line 164.


Package biblatex Warning: Bibliography string 'and' untranslated
(biblatex)                at entry 'la2019cell' on input line 164.


Package biblatex Warning: Bibliography string 'volume' untranslated
(biblatex)                at entry 'la2019cell' on input line 164.


Package biblatex Warning: Using fallback definition for \mkbibdatelong.
(biblatex)                The command should be defined in the .lbx file.
(biblatex)                If you see this message, the .lbx file could not be
(biblatex)                loaded, is faulty or does not contain a definition
(biblatex)                for \mkbibdatelong.


Overfull \hbox (18.61415pt too wide) in paragraph at lines 171--171
[]\OT1/ptm/m/n/12 Caterina AM La Porta [] Stefano Zapperi. \OT1/ptm/m/it/12 Cel
l Migrations: Causes and Functions\OT1/ptm/m/n/12 . [] 1146.
 []


Package biblatex Warning: Bibliography string 'and' untranslated
(biblatex)                at entry 'ziebert2016macroscopic' on input line 164.


Package biblatex Warning: Bibliography string 'in' untranslated
(biblatex)                at entry 'ziebert2016macroscopic' on input line 164.


Package biblatex Warning: Using fallback definition for \mkbibdatelong.
(biblatex)                The command should be defined in the .lbx file.
(biblatex)                If you see this message, the .lbx file could not be
(biblatex)                loaded, is faulty or does not contain a definition
(biblatex)                for \mkbibdatelong.


Package biblatex Warning: Bibliography string 'pages' untranslated
(biblatex)                at entry 'ziebert2016macroscopic' on input line 164.

[43]

Package biblatex Warning: Bibliography string 'andothers' untranslated
(biblatex)                at entry 'basu2018active' on input line 164.


Package biblatex Warning: Bibliography string 'in' untranslated
(biblatex)                at entry 'basu2018active' on input line 164.


Package biblatex Warning: Using fallback definition for \mkbibdatelong.
(biblatex)                The command should be defined in the .lbx file.
(biblatex)                If you see this message, the .lbx file could not be
(biblatex)                loaded, is faulty or does not contain a definition
(biblatex)                for \mkbibdatelong.


Package biblatex Warning: Bibliography string 'page' untranslated
(biblatex)                at entry 'basu2018active' on input line 164.


Package biblatex Warning: Bibliography string 'andothers' untranslated
(biblatex)                at entry 'dieterich2008anomalous' on input line 164.


Package biblatex Warning: Bibliography string 'in' untranslated
(biblatex)                at entry 'dieterich2008anomalous' on input line 164.


Package biblatex Warning: Using fallback definition for \mkbibdatelong.
(biblatex)                The command should be defined in the .lbx file.
(biblatex)                If you see this message, the .lbx file could not be
(biblatex)                loaded, is faulty or does not contain a definition
(biblatex)                for \mkbibdatelong.


Package biblatex Warning: Bibliography string 'pages' untranslated
(biblatex)                at entry 'dieterich2008anomalous' on input line 164.


Package biblatex Warning: Bibliography string 'and' untranslated
(biblatex)                at entry 'vicsek2012collective' on input line 164.


Package biblatex Warning: Bibliography string 'in' untranslated
(biblatex)                at entry 'vicsek2012collective' on input line 164.


Package biblatex Warning: Using fallback definition for \mkbibdatelong.
(biblatex)                The command should be defined in the .lbx file.
(biblatex)                If you see this message, the .lbx file could not be
(biblatex)                loaded, is faulty or does not contain a definition
(biblatex)                for \mkbibdatelong.


Package biblatex Warning: Bibliography string 'pages' untranslated
(biblatex)                at entry 'vicsek2012collective' on input line 164.


Package biblatex Warning: Bibliography string 'andothers' untranslated
(biblatex)                at entry 'shaebani2020computational' on input line 16
4.


Package biblatex Warning: Bibliography string 'in' untranslated
(biblatex)                at entry 'shaebani2020computational' on input line 16
4.


Package biblatex Warning: Using fallback definition for \mkbibdatelong.
(biblatex)                The command should be defined in the .lbx file.
(biblatex)                If you see this message, the .lbx file could not be
(biblatex)                loaded, is faulty or does not contain a definition
(biblatex)                for \mkbibdatelong.


Package biblatex Warning: Bibliography string 'pages' untranslated
(biblatex)                at entry 'shaebani2020computational' on input line 16
4.


Package biblatex Warning: Bibliography string 'andothers' untranslated
(biblatex)                at entry 'chate2008collective' on input line 164.


Package biblatex Warning: Bibliography string 'in' untranslated
(biblatex)                at entry 'chate2008collective' on input line 164.


Package biblatex Warning: Using fallback definition for \mkbibdatelong.
(biblatex)                The command should be defined in the .lbx file.
(biblatex)                If you see this message, the .lbx file could not be
(biblatex)                loaded, is faulty or does not contain a definition
(biblatex)                for \mkbibdatelong.


Package biblatex Warning: Bibliography string 'page' untranslated
(biblatex)                at entry 'chate2008collective' on input line 164.


Package biblatex Warning: Bibliography string 'and' untranslated
(biblatex)                at entry 'nagy2007new' on input line 164.


Package biblatex Warning: Bibliography string 'in' untranslated
(biblatex)                at entry 'nagy2007new' on input line 164.


Package biblatex Warning: Using fallback definition for \mkbibdatelong.
(biblatex)                The command should be defined in the .lbx file.
(biblatex)                If you see this message, the .lbx file could not be
(biblatex)                loaded, is faulty or does not contain a definition
(biblatex)                for \mkbibdatelong.


Package biblatex Warning: Bibliography string 'pages' untranslated
(biblatex)                at entry 'nagy2007new' on input line 164.


! LaTeX Error: Unicode character ́ (U+0301)
               not set up for use with LaTeX.

See the LaTeX manual or LaTeX Companion for explanation.
Type  H <return>  for immediate help.
 ...                                              
                                                  
l.171 \end
          {document}
? 

Package biblatex Warning: Bibliography string 'andothers' untranslated
(biblatex)                at entry 'martin2018collective' on input line 164.


Package biblatex Warning: Bibliography string 'in' untranslated
(biblatex)                at entry 'martin2018collective' on input line 164.


Package biblatex Warning: Using fallback definition for \mkbibdatelong.
(biblatex)                The command should be defined in the .lbx file.
(biblatex)                If you see this message, the .lbx file could not be
(biblatex)                loaded, is faulty or does not contain a definition
(biblatex)                for \mkbibdatelong.


Package biblatex Warning: Bibliography string 'pages' untranslated
(biblatex)                at entry 'martin2018collective' on input line 164.

[44] (./main.aux (./1capa.aux) (./2agrad.aux) (./cap1_introduction.aux)
(./cap2_revisaobib.aux) (./cap3_metodologia.aux) (./cap4_resultados.aux)
(./cap5_conclusion.aux))

LaTeX Warning: There were undefined references.


LaTeX Warning: There were multiply-defined labels.

Package rerunfilecheck Info: File `main.out' has not changed.
(rerunfilecheck)             Checksum: 87167F318E017F828F3196A427AF1324;3261.

Package biblatex Warning: Please (re)run Biber on the file:
(biblatex)                main
(biblatex)                and rerun LaTeX afterwards.

Package logreq Info: Writing requests to 'main.run.xml'.
\openout1 = `main.run.xml'.

 ) 
Here is how much of TeX's memory you used:
 26191 strings out of 477975
 502554 string characters out of 5839280
 1871330 words of memory out of 5000000
 45654 multiletter control sequences out of 15000+600000
 573431 words of font info for 166 fonts, out of 8000000 for 9000
 59 hyphenation exceptions out of 8191
 75i,15n,79p,4229b,1896s stack positions out of 10000i,1000n,20000p,200000b,200000s
{/usr/share/texlive/texmf-dist/fonts/enc/dvips/base/8r.enc}</usr/share/texliv
e/texmf-dist/fonts/type1/public/amsfonts/cm/cmex10.pfb></usr/share/texlive/texm
f-dist/fonts/type1/public/amsfonts/cm/cmmi10.pfb></usr/share/texlive/texmf-dist
/fonts/type1/public/amsfonts/cm/cmr10.pfb></usr/share/texlive/texmf-dist/fonts/
type1/public/amsfonts/cm/cmsy10.pfb></usr/share/texlive/texmf-dist/fonts/type1/
urw/symbol/usyr.pfb></usr/share/texlive/texmf-dist/fonts/type1/urw/symbol/usyr.
pfb></usr/share/texlive/texmf-dist/fonts/type1/urw/times/utmb8a.pfb></usr/share
/texlive/texmf-dist/fonts/type1/urw/times/utmr8a.pfb></usr/share/texlive/texmf-
dist/fonts/type1/urw/times/utmr8a.pfb></usr/share/texlive/texmf-dist/fonts/type
1/urw/times/utmri8a.pfb>
Output written on main.pdf (46 pages, 5802124 bytes).
PDF statistics:
 798 PDF objects out of 1000 (max. 8388607)
 679 compressed objects within 7 object streams
 225 named destinations out of 1000 (max. 500000)
 243 words of extra memory for PDF output out of 10000 (max. 10000000)

