% $ biblatex auxiliary file $
% $ biblatex bbl format version 3.2 $
% Do not modify the above lines!
%
% This is an auxiliary file used by the 'biblatex' package.
% This file may safely be deleted. It will be recreated by
% biber as required.
%
\begingroup
\makeatletter
\@ifundefined{ver@biblatex.sty}
  {\@latex@error
     {Missing 'biblatex' package}
     {The bibliography requires the 'biblatex' package.}
      \aftergroup\endinput}
  {}
\endgroup


\refsection{0}
  \datalist[entry]{none/global//global/global}
    \entry{wooldridge1995intelligent}{article}{}
      \name{author}{2}{}{%
        {{hash=ea0f2db42141b96e5751d533bd719db5}{%
           family={Wooldridge},
           familyi={W\bibinitperiod},
           given={Michael\bibnamedelima J},
           giveni={M\bibinitperiod\bibinitdelim J\bibinitperiod}}}%
        {{hash=1fb1b859fa7fe89eeae563907c07b4e4}{%
           family={Jennings},
           familyi={J\bibinitperiod},
           given={Nicholas\bibnamedelima R},
           giveni={N\bibinitperiod\bibinitdelim R\bibinitperiod}}}%
      }
      \strng{namehash}{22e610c612200985acdd4c2cdded3528}
      \strng{fullhash}{22e610c612200985acdd4c2cdded3528}
      \strng{bibnamehash}{22e610c612200985acdd4c2cdded3528}
      \strng{authorbibnamehash}{22e610c612200985acdd4c2cdded3528}
      \strng{authornamehash}{22e610c612200985acdd4c2cdded3528}
      \strng{authorfullhash}{22e610c612200985acdd4c2cdded3528}
      \field{sortinit}{1}
      \field{sortinithash}{4f6aaa89bab872aa0999fec09ff8e98a}
      \field{labelnamesource}{author}
      \field{labeltitlesource}{title}
      \field{journaltitle}{The knowledge engineering review}
      \field{number}{2}
      \field{title}{Intelligent agents: Theory and practice}
      \field{volume}{10}
      \field{year}{1995}
      \field{pages}{115\bibrangedash 152}
      \range{pages}{38}
    \endentry
    \entry{muller1997intelligent}{book}{}
      \name{author}{2}{}{%
        {{hash=e4a8c3bbefda27926fdda7626c8b2f8e}{%
           family={Muller},
           familyi={M\bibinitperiod},
           given={Keith\bibnamedelima E},
           giveni={K\bibinitperiod\bibinitdelim E\bibinitperiod}}}%
        {{hash=ea0f2db42141b96e5751d533bd719db5}{%
           family={Wooldridge},
           familyi={W\bibinitperiod},
           given={Michael\bibnamedelima J},
           giveni={M\bibinitperiod\bibinitdelim J\bibinitperiod}}}%
      }
      \list{publisher}{1}{%
        {Springer Science \& Business Media}%
      }
      \strng{namehash}{47abeefa04c8abcbcd4e49c5842eef3e}
      \strng{fullhash}{47abeefa04c8abcbcd4e49c5842eef3e}
      \strng{bibnamehash}{47abeefa04c8abcbcd4e49c5842eef3e}
      \strng{authorbibnamehash}{47abeefa04c8abcbcd4e49c5842eef3e}
      \strng{authornamehash}{47abeefa04c8abcbcd4e49c5842eef3e}
      \strng{authorfullhash}{47abeefa04c8abcbcd4e49c5842eef3e}
      \field{sortinit}{2}
      \field{sortinithash}{8b555b3791beccb63322c22f3320aa9a}
      \field{labelnamesource}{author}
      \field{labeltitlesource}{title}
      \field{title}{Intelligent Agents III. Agent Theories, Architectures, and Languages: ECAI'96 Workshop (ATAL), Budapest, Hungary, August 12-13, 1996, Proceedings}
      \field{volume}{3}
      \field{year}{1997}
    \endentry
    \entry{schweitzer2003brownian}{book}{}
      \name{author}{1}{}{%
        {{hash=ea6ecad70839aba09750d87a5ce2595a}{%
           family={Schweitzer},
           familyi={S\bibinitperiod},
           given={Frank},
           giveni={F\bibinitperiod}}}%
      }
      \list{publisher}{1}{%
        {Springer Science \& Business Media}%
      }
      \strng{namehash}{ea6ecad70839aba09750d87a5ce2595a}
      \strng{fullhash}{ea6ecad70839aba09750d87a5ce2595a}
      \strng{bibnamehash}{ea6ecad70839aba09750d87a5ce2595a}
      \strng{authorbibnamehash}{ea6ecad70839aba09750d87a5ce2595a}
      \strng{authornamehash}{ea6ecad70839aba09750d87a5ce2595a}
      \strng{authorfullhash}{ea6ecad70839aba09750d87a5ce2595a}
      \field{sortinit}{3}
      \field{sortinithash}{ad6fe7482ffbd7b9f99c9e8b5dccd3d7}
      \field{labelnamesource}{author}
      \field{labeltitlesource}{title}
      \field{title}{Brownian agents and active particles: collective dynamics in the natural and social sciences}
      \field{year}{2003}
    \endentry
    \entry{uhlenbeck1930theory}{article}{}
      \name{author}{2}{}{%
        {{hash=9f0674093be429d992a812b440066f07}{%
           family={Uhlenbeck},
           familyi={U\bibinitperiod},
           given={George\bibnamedelima E},
           giveni={G\bibinitperiod\bibinitdelim E\bibinitperiod}}}%
        {{hash=306e7bf4815af6feb1a8c86c38384cf6}{%
           family={Ornstein},
           familyi={O\bibinitperiod},
           given={Leonard\bibnamedelima S},
           giveni={L\bibinitperiod\bibinitdelim S\bibinitperiod}}}%
      }
      \list{publisher}{1}{%
        {APS}%
      }
      \strng{namehash}{4c4eff5caee6a968411f8fb937737eb4}
      \strng{fullhash}{4c4eff5caee6a968411f8fb937737eb4}
      \strng{bibnamehash}{4c4eff5caee6a968411f8fb937737eb4}
      \strng{authorbibnamehash}{4c4eff5caee6a968411f8fb937737eb4}
      \strng{authornamehash}{4c4eff5caee6a968411f8fb937737eb4}
      \strng{authorfullhash}{4c4eff5caee6a968411f8fb937737eb4}
      \field{sortinit}{4}
      \field{sortinithash}{9381316451d1b9788675a07e972a12a7}
      \field{labelnamesource}{author}
      \field{labeltitlesource}{title}
      \field{journaltitle}{Physical review}
      \field{number}{5}
      \field{title}{On the theory of the Brownian motion}
      \field{volume}{36}
      \field{year}{1930}
      \field{pages}{823}
      \range{pages}{1}
    \endentry
    \entry{furth1920brownsche}{article}{}
      \name{author}{1}{}{%
        {{hash=bdefdf22ce7e8a4545c5ea4f62fd30dc}{%
           family={Fürth},
           familyi={F\bibinitperiod},
           given={Reinhold},
           giveni={R\bibinitperiod}}}%
      }
      \list{publisher}{1}{%
        {Springer}%
      }
      \strng{namehash}{bdefdf22ce7e8a4545c5ea4f62fd30dc}
      \strng{fullhash}{bdefdf22ce7e8a4545c5ea4f62fd30dc}
      \strng{bibnamehash}{bdefdf22ce7e8a4545c5ea4f62fd30dc}
      \strng{authorbibnamehash}{bdefdf22ce7e8a4545c5ea4f62fd30dc}
      \strng{authornamehash}{bdefdf22ce7e8a4545c5ea4f62fd30dc}
      \strng{authorfullhash}{bdefdf22ce7e8a4545c5ea4f62fd30dc}
      \field{sortinit}{5}
      \field{sortinithash}{20e9b4b0b173788c5dace24730f47d8c}
      \field{labelnamesource}{author}
      \field{labeltitlesource}{title}
      \field{journaltitle}{Zeitschrift für Physik}
      \field{number}{3}
      \field{title}{Die brownsche bewegung bei berücksichtigung einer persistenz der bewegungsrichtung. mit anwendungen auf die bewegung lebender infusorien}
      \field{volume}{2}
      \field{year}{1920}
      \field{pages}{244\bibrangedash 256}
      \range{pages}{13}
    \endentry
    \entry{vicsek1995novel}{article}{}
      \name{author}{5}{}{%
        {{hash=6ff33ab4371a3804415d624c6171ef14}{%
           family={Vicsek},
           familyi={V\bibinitperiod},
           given={Tamás},
           giveni={T\bibinitperiod}}}%
        {{hash=e49092463ae827145e6c5db1f68e488c}{%
           family={Czirók},
           familyi={C\bibinitperiod},
           given={András},
           giveni={A\bibinitperiod}}}%
        {{hash=e1aafa4a6f7b6d973b7b308d275c740d}{%
           family={Ben-Jacob},
           familyi={B\bibinithyphendelim J\bibinitperiod},
           given={Eshel},
           giveni={E\bibinitperiod}}}%
        {{hash=c3374403e0a9bf6fc4c56ad43756d69c}{%
           family={Cohen},
           familyi={C\bibinitperiod},
           given={Inon},
           giveni={I\bibinitperiod}}}%
        {{hash=3095bc01b159c211fee2012bc81caf3f}{%
           family={Shochet},
           familyi={S\bibinitperiod},
           given={Ofer},
           giveni={O\bibinitperiod}}}%
      }
      \list{publisher}{1}{%
        {APS}%
      }
      \strng{namehash}{2cf75c95e02ce49b7ca8204d8af0e70f}
      \strng{fullhash}{d32f79665a78e2c74dcbf61c2ef6859f}
      \strng{bibnamehash}{2cf75c95e02ce49b7ca8204d8af0e70f}
      \strng{authorbibnamehash}{2cf75c95e02ce49b7ca8204d8af0e70f}
      \strng{authornamehash}{2cf75c95e02ce49b7ca8204d8af0e70f}
      \strng{authorfullhash}{d32f79665a78e2c74dcbf61c2ef6859f}
      \field{sortinit}{6}
      \field{sortinithash}{b33bc299efb3c36abec520a4c896a66d}
      \field{labelnamesource}{author}
      \field{labeltitlesource}{title}
      \field{journaltitle}{Physical review letters}
      \field{number}{6}
      \field{title}{Novel type of phase transition in a system of self-driven particles}
      \field{volume}{75}
      \field{year}{1995}
      \field{pages}{1226}
      \range{pages}{1}
    \endentry
    \entry{szabo2006phase}{article}{}
      \name{author}{6}{}{%
        {{hash=c7e769cfb5823d7af8285d5a3a76baad}{%
           family={Szabo},
           familyi={S\bibinitperiod},
           given={Balint},
           giveni={B\bibinitperiod}}}%
        {{hash=0db2fac2cf7bdeafb9ad6c526ed8336b}{%
           family={Szöllösi},
           familyi={S\bibinitperiod},
           given={GJ},
           giveni={G\bibinitperiod}}}%
        {{hash=da1eabd139b974269f19ba1c0d3a2e46}{%
           family={Gönci},
           familyi={G\bibinitperiod},
           given={B},
           giveni={B\bibinitperiod}}}%
        {{hash=a11031dd2bd2bdbe8f11bc7f51465ad4}{%
           family={Jurányi},
           familyi={J\bibinitperiod},
           given={Zs},
           giveni={Z\bibinitperiod}}}%
        {{hash=bd74e9cc7a7b82a8376a5b8f6cc28a1b}{%
           family={Selmeczi},
           familyi={S\bibinitperiod},
           given={David},
           giveni={D\bibinitperiod}}}%
        {{hash=6ff33ab4371a3804415d624c6171ef14}{%
           family={Vicsek},
           familyi={V\bibinitperiod},
           given={Tamás},
           giveni={T\bibinitperiod}}}%
      }
      \list{publisher}{1}{%
        {APS}%
      }
      \strng{namehash}{65acc6c0d53cb71d5383f9681b708252}
      \strng{fullhash}{de4fd53e35aa7543b243cc3b8a1548f1}
      \strng{bibnamehash}{65acc6c0d53cb71d5383f9681b708252}
      \strng{authorbibnamehash}{65acc6c0d53cb71d5383f9681b708252}
      \strng{authornamehash}{65acc6c0d53cb71d5383f9681b708252}
      \strng{authorfullhash}{de4fd53e35aa7543b243cc3b8a1548f1}
      \field{sortinit}{7}
      \field{sortinithash}{108d0be1b1bee9773a1173443802c0a3}
      \field{labelnamesource}{author}
      \field{labeltitlesource}{title}
      \field{journaltitle}{Physical Review E}
      \field{number}{6}
      \field{title}{Phase transition in the collective migration of tissue cells: experiment and model}
      \field{volume}{74}
      \field{year}{2006}
      \field{pages}{061908}
      \range{pages}{1}
    \endentry
    \entry{brown1828xxvii}{article}{}
      \name{author}{1}{}{%
        {{hash=5e20f446d2daa6c87a39214f30e3117d}{%
           family={Brown},
           familyi={B\bibinitperiod},
           given={Robert},
           giveni={R\bibinitperiod}}}%
      }
      \list{publisher}{1}{%
        {Taylor \& Francis}%
      }
      \strng{namehash}{5e20f446d2daa6c87a39214f30e3117d}
      \strng{fullhash}{5e20f446d2daa6c87a39214f30e3117d}
      \strng{bibnamehash}{5e20f446d2daa6c87a39214f30e3117d}
      \strng{authorbibnamehash}{5e20f446d2daa6c87a39214f30e3117d}
      \strng{authornamehash}{5e20f446d2daa6c87a39214f30e3117d}
      \strng{authorfullhash}{5e20f446d2daa6c87a39214f30e3117d}
      \field{sortinit}{8}
      \field{sortinithash}{a231b008ebf0ecbe0b4d96dcc159445f}
      \field{labelnamesource}{author}
      \field{labeltitlesource}{title}
      \field{journaltitle}{The Philosophical Magazine}
      \field{number}{21}
      \field{title}{XXVII. A brief account of microscopical observations made in the months of June, July and August 1827, on the particles contained in the pollen of plants; and on the general existence of active molecules in organic and inorganic bodies}
      \field{volume}{4}
      \field{year}{1828}
      \field{pages}{161\bibrangedash 173}
      \range{pages}{13}
    \endentry
    \entry{ingen1784bemerkungen}{article}{}
      \name{author}{1}{}{%
        {{hash=bf13243434cb1914e1464f1b175fef42}{%
           family={Ingen-Housz},
           familyi={I\bibinithyphendelim H\bibinitperiod},
           given={Johann},
           giveni={J\bibinitperiod}}}%
      }
      \strng{namehash}{bf13243434cb1914e1464f1b175fef42}
      \strng{fullhash}{bf13243434cb1914e1464f1b175fef42}
      \strng{bibnamehash}{bf13243434cb1914e1464f1b175fef42}
      \strng{authorbibnamehash}{bf13243434cb1914e1464f1b175fef42}
      \strng{authornamehash}{bf13243434cb1914e1464f1b175fef42}
      \strng{authorfullhash}{bf13243434cb1914e1464f1b175fef42}
      \field{sortinit}{9}
      \field{sortinithash}{0a5ebc79d83c96b6579069544c73c7d4}
      \field{labelnamesource}{author}
      \field{labeltitlesource}{title}
      \field{journaltitle}{Vermischte Schriften physisch-medicinischen Inhalts. Christian Friderich Wappler, Wien}
      \field{title}{Bemerkungen über den Gebrauch des Vergrösserungsglases}
      \field{year}{1784}
    \endentry
    \entry{hartman1994fundamental}{article}{}
      \name{author}{4}{}{%
        {{hash=ae001674b59d4c42d5d0895bf1b6832b}{%
           family={Hartman},
           familyi={H\bibinitperiod},
           given={RS},
           giveni={R\bibinitperiod}}}%
        {{hash=1fa9f8312b3139893a592df57f0076b6}{%
           family={Lau},
           familyi={L\bibinitperiod},
           given={K},
           giveni={K\bibinitperiod}}}%
        {{hash=d962c65750ba6b9d09bc7eab1260998f}{%
           family={Chou},
           familyi={C\bibinitperiod},
           given={W},
           giveni={W\bibinitperiod}}}%
        {{hash=07eb0440a10260066ef84a71eab705f2}{%
           family={Coates},
           familyi={C\bibinitperiod},
           given={TD},
           giveni={T\bibinitperiod}}}%
      }
      \list{publisher}{1}{%
        {Elsevier}%
      }
      \strng{namehash}{cd2cf07fb5e6a31d51e389dc8f321217}
      \strng{fullhash}{825ec615352e0ffe04df455b7f3910d8}
      \strng{bibnamehash}{cd2cf07fb5e6a31d51e389dc8f321217}
      \strng{authorbibnamehash}{cd2cf07fb5e6a31d51e389dc8f321217}
      \strng{authornamehash}{cd2cf07fb5e6a31d51e389dc8f321217}
      \strng{authorfullhash}{825ec615352e0ffe04df455b7f3910d8}
      \field{sortinit}{1}
      \field{sortinithash}{4f6aaa89bab872aa0999fec09ff8e98a}
      \field{labelnamesource}{author}
      \field{labeltitlesource}{title}
      \field{journaltitle}{Biophysical journal}
      \field{number}{6}
      \field{title}{The fundamental motor of the human neutrophil is not random: evidence for local non-Markov movement in neutrophils}
      \field{volume}{67}
      \field{year}{1994}
      \field{pages}{2535\bibrangedash 2545}
      \range{pages}{11}
    \endentry
    \entry{gail1970locomotion}{article}{}
      \name{author}{2}{}{%
        {{hash=a3e030bc69209ef983524432e6dfc916}{%
           family={Gail},
           familyi={G\bibinitperiod},
           given={Mitchell\bibnamedelima H},
           giveni={M\bibinitperiod\bibinitdelim H\bibinitperiod}}}%
        {{hash=f20ea1f4cb840294e8f5d645ac6d6d61}{%
           family={Boone},
           familyi={B\bibinitperiod},
           given={Charles\bibnamedelima W},
           giveni={C\bibinitperiod\bibinitdelim W\bibinitperiod}}}%
      }
      \list{publisher}{1}{%
        {The Biophysical Society}%
      }
      \strng{namehash}{b3776c722e6c657d53b68c1715c5ce7f}
      \strng{fullhash}{b3776c722e6c657d53b68c1715c5ce7f}
      \strng{bibnamehash}{b3776c722e6c657d53b68c1715c5ce7f}
      \strng{authorbibnamehash}{b3776c722e6c657d53b68c1715c5ce7f}
      \strng{authornamehash}{b3776c722e6c657d53b68c1715c5ce7f}
      \strng{authorfullhash}{b3776c722e6c657d53b68c1715c5ce7f}
      \field{sortinit}{1}
      \field{sortinithash}{4f6aaa89bab872aa0999fec09ff8e98a}
      \field{labelnamesource}{author}
      \field{labeltitlesource}{title}
      \field{journaltitle}{Biophysical journal}
      \field{number}{10}
      \field{title}{The locomotion of mouse fibroblasts in tissue culture}
      \field{volume}{10}
      \field{year}{1970}
      \field{pages}{980}
      \range{pages}{1}
    \endentry
    \entry{dunn1987unified}{article}{}
      \name{author}{2}{}{%
        {{hash=94cc615392a8d5faaee5049bd0efbacc}{%
           family={Dunn},
           familyi={D\bibinitperiod},
           given={GA},
           giveni={G\bibinitperiod}}}%
        {{hash=28fdd600528fb44f78b8bc9d1b643d4b}{%
           family={Brown},
           familyi={B\bibinitperiod},
           given={AF},
           giveni={A\bibinitperiod}}}%
      }
      \list{publisher}{1}{%
        {The Company of Biologists Ltd}%
      }
      \strng{namehash}{2085fcf27ac8cf182f1f9fac0f24f9e4}
      \strng{fullhash}{2085fcf27ac8cf182f1f9fac0f24f9e4}
      \strng{bibnamehash}{2085fcf27ac8cf182f1f9fac0f24f9e4}
      \strng{authorbibnamehash}{2085fcf27ac8cf182f1f9fac0f24f9e4}
      \strng{authornamehash}{2085fcf27ac8cf182f1f9fac0f24f9e4}
      \strng{authorfullhash}{2085fcf27ac8cf182f1f9fac0f24f9e4}
      \field{sortinit}{1}
      \field{sortinithash}{4f6aaa89bab872aa0999fec09ff8e98a}
      \field{labelnamesource}{author}
      \field{labeltitlesource}{title}
      \field{journaltitle}{Journal of Cell Science}
      \field{number}{Supplement 8}
      \field{title}{A unified approach to analysing cell motility}
      \field{volume}{1987}
      \field{year}{1987}
      \field{pages}{81\bibrangedash 102}
      \range{pages}{22}
    \endentry
    \entry{maheshwari1998deconstructing}{article}{}
      \name{author}{2}{}{%
        {{hash=c9703d7173d06b1d60311cc2f21964ab}{%
           family={Maheshwari},
           familyi={M\bibinitperiod},
           given={Gargi},
           giveni={G\bibinitperiod}}}%
        {{hash=38c78f7b0f1c09231744c92f08c2a7c3}{%
           family={Lauffenburger},
           familyi={L\bibinitperiod},
           given={Douglas\bibnamedelima A},
           giveni={D\bibinitperiod\bibinitdelim A\bibinitperiod}}}%
      }
      \list{publisher}{1}{%
        {Wiley Online Library}%
      }
      \strng{namehash}{15e4c29d2970d1761936dadb91dda23a}
      \strng{fullhash}{15e4c29d2970d1761936dadb91dda23a}
      \strng{bibnamehash}{15e4c29d2970d1761936dadb91dda23a}
      \strng{authorbibnamehash}{15e4c29d2970d1761936dadb91dda23a}
      \strng{authornamehash}{15e4c29d2970d1761936dadb91dda23a}
      \strng{authorfullhash}{15e4c29d2970d1761936dadb91dda23a}
      \field{sortinit}{1}
      \field{sortinithash}{4f6aaa89bab872aa0999fec09ff8e98a}
      \field{labelnamesource}{author}
      \field{labeltitlesource}{title}
      \field{journaltitle}{Microscopy research and technique}
      \field{number}{5}
      \field{title}{Deconstructing (and reconstructing) cell migration}
      \field{volume}{43}
      \field{year}{1998}
      \field{pages}{358\bibrangedash 368}
      \range{pages}{11}
    \endentry
    \entry{tome2015stochastic}{book}{}
      \name{author}{2}{}{%
        {{hash=6373d46134a517a734421dba05cee70c}{%
           family={Tomé},
           familyi={T\bibinitperiod},
           given={Tânia},
           giveni={T\bibinitperiod}}}%
        {{hash=45079f139e6ec2c9e903fed7956be17a}{%
           family={De\bibnamedelima Oliveira},
           familyi={D\bibinitperiod\bibinitdelim O\bibinitperiod},
           given={Mário\bibnamedelima J},
           giveni={M\bibinitperiod\bibinitdelim J\bibinitperiod}}}%
      }
      \list{publisher}{1}{%
        {Springer}%
      }
      \strng{namehash}{065192c8764fda1259c3beafc543f838}
      \strng{fullhash}{065192c8764fda1259c3beafc543f838}
      \strng{bibnamehash}{065192c8764fda1259c3beafc543f838}
      \strng{authorbibnamehash}{065192c8764fda1259c3beafc543f838}
      \strng{authornamehash}{065192c8764fda1259c3beafc543f838}
      \strng{authorfullhash}{065192c8764fda1259c3beafc543f838}
      \field{sortinit}{1}
      \field{sortinithash}{4f6aaa89bab872aa0999fec09ff8e98a}
      \field{labelnamesource}{author}
      \field{labeltitlesource}{title}
      \field{title}{Stochastic dynamics and irreversibility}
      \field{year}{2015}
    \endentry
    \entry{gardiner1985handbook}{book}{}
      \true{moreauthor}
      \true{morelabelname}
      \name{author}{1}{}{%
        {{hash=0ac54a9c65531da2288c6224c8bc1bcd}{%
           family={Gardiner},
           familyi={G\bibinitperiod},
           given={Crispin\bibnamedelima W},
           giveni={C\bibinitperiod\bibinitdelim W\bibinitperiod}}}%
      }
      \list{publisher}{1}{%
        {springer Berlin}%
      }
      \strng{namehash}{2125eee6dd2fa67db7dbd5c52f2e79ef}
      \strng{fullhash}{2125eee6dd2fa67db7dbd5c52f2e79ef}
      \strng{bibnamehash}{2125eee6dd2fa67db7dbd5c52f2e79ef}
      \strng{authorbibnamehash}{2125eee6dd2fa67db7dbd5c52f2e79ef}
      \strng{authornamehash}{2125eee6dd2fa67db7dbd5c52f2e79ef}
      \strng{authorfullhash}{2125eee6dd2fa67db7dbd5c52f2e79ef}
      \field{sortinit}{1}
      \field{sortinithash}{4f6aaa89bab872aa0999fec09ff8e98a}
      \field{labelnamesource}{author}
      \field{labeltitlesource}{title}
      \field{title}{Handbook of stochastic methods}
      \field{volume}{3}
      \field{year}{1985}
    \endentry
    \entry{selmeczi2005cell}{article}{}
      \name{author}{5}{}{%
        {{hash=bd74e9cc7a7b82a8376a5b8f6cc28a1b}{%
           family={Selmeczi},
           familyi={S\bibinitperiod},
           given={David},
           giveni={D\bibinitperiod}}}%
        {{hash=7d0962bcd9c4d35d9699c577e063c4fa}{%
           family={Mosler},
           familyi={M\bibinitperiod},
           given={Stephan},
           giveni={S\bibinitperiod}}}%
        {{hash=346b55d431fbada2bb572b78b9e95762}{%
           family={Hagedorn},
           familyi={H\bibinitperiod},
           given={Peter\bibnamedelima H},
           giveni={P\bibinitperiod\bibinitdelim H\bibinitperiod}}}%
        {{hash=4527e3a5148bfdaea5f49fc5114278a5}{%
           family={Larsen},
           familyi={L\bibinitperiod},
           given={Niels\bibnamedelima B},
           giveni={N\bibinitperiod\bibinitdelim B\bibinitperiod}}}%
        {{hash=4ce9b2a908f915d5107e80f09cb0d362}{%
           family={Flyvbjerg},
           familyi={F\bibinitperiod},
           given={Henrik},
           giveni={H\bibinitperiod}}}%
      }
      \list{publisher}{1}{%
        {Elsevier}%
      }
      \strng{namehash}{1e7b13bf9a76bf354e04eb279c010e68}
      \strng{fullhash}{84d9de5eac843c73c6b8a0ffeacd5584}
      \strng{bibnamehash}{1e7b13bf9a76bf354e04eb279c010e68}
      \strng{authorbibnamehash}{1e7b13bf9a76bf354e04eb279c010e68}
      \strng{authornamehash}{1e7b13bf9a76bf354e04eb279c010e68}
      \strng{authorfullhash}{84d9de5eac843c73c6b8a0ffeacd5584}
      \field{sortinit}{1}
      \field{sortinithash}{4f6aaa89bab872aa0999fec09ff8e98a}
      \field{labelnamesource}{author}
      \field{labeltitlesource}{title}
      \field{journaltitle}{Biophysical journal}
      \field{number}{2}
      \field{title}{Cell motility as persistent random motion: theories from experiments}
      \field{volume}{89}
      \field{year}{2005}
      \field{pages}{912\bibrangedash 931}
      \range{pages}{20}
    \endentry
    \entry{schweitzer1998complex}{article}{}
      \name{author}{3}{}{%
        {{hash=ea6ecad70839aba09750d87a5ce2595a}{%
           family={Schweitzer},
           familyi={S\bibinitperiod},
           given={Frank},
           giveni={F\bibinitperiod}}}%
        {{hash=88f3c9f8dec8d41de1a936423ae1cb06}{%
           family={Ebeling},
           familyi={E\bibinitperiod},
           given={Werner},
           giveni={W\bibinitperiod}}}%
        {{hash=691760982bbf767cacb385d524c5e4b8}{%
           family={Tilch},
           familyi={T\bibinitperiod},
           given={Benno},
           giveni={B\bibinitperiod}}}%
      }
      \list{publisher}{1}{%
        {APS}%
      }
      \strng{namehash}{425a20baa18ac680d19a5437168afec2}
      \strng{fullhash}{425a20baa18ac680d19a5437168afec2}
      \strng{bibnamehash}{425a20baa18ac680d19a5437168afec2}
      \strng{authorbibnamehash}{425a20baa18ac680d19a5437168afec2}
      \strng{authornamehash}{425a20baa18ac680d19a5437168afec2}
      \strng{authorfullhash}{425a20baa18ac680d19a5437168afec2}
      \field{sortinit}{1}
      \field{sortinithash}{4f6aaa89bab872aa0999fec09ff8e98a}
      \field{labelnamesource}{author}
      \field{labeltitlesource}{title}
      \field{journaltitle}{Physical Review Letters}
      \field{number}{23}
      \field{title}{Complex motion of Brownian particles with energy depots}
      \field{volume}{80}
      \field{year}{1998}
      \field{pages}{5044}
      \range{pages}{1}
    \endentry
    \entry{li2008persistent}{article}{}
      \name{author}{3}{}{%
        {{hash=d9acdfc178153ae66cc7cabcb735e635}{%
           family={Li},
           familyi={L\bibinitperiod},
           given={Liang},
           giveni={L\bibinitperiod}}}%
        {{hash=c2624fdfe37ff683e56f84fe0056ecf5}{%
           family={N{ø}rrelykke},
           familyi={N\bibinitperiod},
           given={Simon\bibnamedelima F},
           giveni={S\bibinitperiod\bibinitdelim F\bibinitperiod}}}%
        {{hash=88e6f79554faf09b03900041ca479922}{%
           family={Cox},
           familyi={C\bibinitperiod},
           given={Edward\bibnamedelima C},
           giveni={E\bibinitperiod\bibinitdelim C\bibinitperiod}}}%
      }
      \list{publisher}{1}{%
        {Public Library of Science}%
      }
      \strng{namehash}{8b9cab3b157e6ef2b24d9a08a488297a}
      \strng{fullhash}{8b9cab3b157e6ef2b24d9a08a488297a}
      \strng{bibnamehash}{8b9cab3b157e6ef2b24d9a08a488297a}
      \strng{authorbibnamehash}{8b9cab3b157e6ef2b24d9a08a488297a}
      \strng{authornamehash}{8b9cab3b157e6ef2b24d9a08a488297a}
      \strng{authorfullhash}{8b9cab3b157e6ef2b24d9a08a488297a}
      \field{sortinit}{1}
      \field{sortinithash}{4f6aaa89bab872aa0999fec09ff8e98a}
      \field{labelnamesource}{author}
      \field{labeltitlesource}{title}
      \field{journaltitle}{PLoS one}
      \field{number}{5}
      \field{title}{Persistent cell motion in the absence of external signals: a search strategy for eukaryotic cells}
      \field{volume}{3}
      \field{year}{2008}
      \field{pages}{e2093}
      \range{pages}{-1}
    \endentry
    \entry{codling2008random}{article}{}
      \name{author}{3}{}{%
        {{hash=4cf52e1ff4b9bbd3e2e1404c18b60b61}{%
           family={Codling},
           familyi={C\bibinitperiod},
           given={Edward\bibnamedelima A},
           giveni={E\bibinitperiod\bibinitdelim A\bibinitperiod}}}%
        {{hash=540063019b5496a72195e05155c627d1}{%
           family={Plank},
           familyi={P\bibinitperiod},
           given={Michael\bibnamedelima J},
           giveni={M\bibinitperiod\bibinitdelim J\bibinitperiod}}}%
        {{hash=1ee267eb7bba2d398fd8c7cebafa4ed7}{%
           family={Benhamou},
           familyi={B\bibinitperiod},
           given={Simon},
           giveni={S\bibinitperiod}}}%
      }
      \list{publisher}{1}{%
        {The Royal Society London}%
      }
      \strng{namehash}{eae13331839121b193148806b9e2aa31}
      \strng{fullhash}{eae13331839121b193148806b9e2aa31}
      \strng{bibnamehash}{eae13331839121b193148806b9e2aa31}
      \strng{authorbibnamehash}{eae13331839121b193148806b9e2aa31}
      \strng{authornamehash}{eae13331839121b193148806b9e2aa31}
      \strng{authorfullhash}{eae13331839121b193148806b9e2aa31}
      \field{sortinit}{2}
      \field{sortinithash}{8b555b3791beccb63322c22f3320aa9a}
      \field{labelnamesource}{author}
      \field{labeltitlesource}{title}
      \field{journaltitle}{Journal of the Royal Society Interface}
      \field{number}{25}
      \field{title}{Random walk models in biology}
      \field{volume}{5}
      \field{year}{2008}
      \field{pages}{813\bibrangedash 834}
      \range{pages}{22}
    \endentry
    \entry{potdar2010genetic}{article}{}
      \name{author}{6}{}{%
        {{hash=624ced874052fd2843855047920982f3}{%
           family={Potdar},
           familyi={P\bibinitperiod},
           given={Varsha\bibnamedelima A},
           giveni={V\bibinitperiod\bibinitdelim A\bibinitperiod}}}%
        {{hash=f2634b5f5a35a227ce093f0dc4050296}{%
           family={Chadha},
           familyi={C\bibinitperiod},
           given={Mandeep\bibnamedelima S},
           giveni={M\bibinitperiod\bibinitdelim S\bibinitperiod}}}%
        {{hash=1ee93bb8fbc87baf825f508211c2ac49}{%
           family={Jadhav},
           familyi={J\bibinitperiod},
           given={Santosh\bibnamedelima M},
           giveni={S\bibinitperiod\bibinitdelim M\bibinitperiod}}}%
        {{hash=c420f3423c9e1297b36e0e9277aef94d}{%
           family={Mullick},
           familyi={M\bibinitperiod},
           given={Jayati},
           giveni={J\bibinitperiod}}}%
        {{hash=5bcbdfe1e3b86d78da21c1eafae1ad94}{%
           family={Cherian},
           familyi={C\bibinitperiod},
           given={Sarah\bibnamedelima S},
           giveni={S\bibinitperiod\bibinitdelim S\bibinitperiod}}}%
        {{hash=be48da834cfd3a14c86d6d82d46d4de1}{%
           family={Mishra},
           familyi={M\bibinitperiod},
           given={Akhilesh\bibnamedelima C},
           giveni={A\bibinitperiod\bibinitdelim C\bibinitperiod}}}%
      }
      \list{publisher}{1}{%
        {Public Library of Science}%
      }
      \strng{namehash}{ecb4f5edf55fc51fa620fcec7b372e2a}
      \strng{fullhash}{0007c457f35b410a82ed8ca331f1cf6d}
      \strng{bibnamehash}{ecb4f5edf55fc51fa620fcec7b372e2a}
      \strng{authorbibnamehash}{ecb4f5edf55fc51fa620fcec7b372e2a}
      \strng{authornamehash}{ecb4f5edf55fc51fa620fcec7b372e2a}
      \strng{authorfullhash}{0007c457f35b410a82ed8ca331f1cf6d}
      \field{sortinit}{2}
      \field{sortinithash}{8b555b3791beccb63322c22f3320aa9a}
      \field{labelnamesource}{author}
      \field{labeltitlesource}{title}
      \field{journaltitle}{PloS one}
      \field{number}{3}
      \field{title}{Genetic characterization of the influenza A pandemic (H1N1) 2009 virus isolates from India}
      \field{volume}{5}
      \field{year}{2010}
      \field{pages}{e9693}
      \range{pages}{-1}
    \endentry
    \entry{fodor2018statistical}{article}{}
      \name{author}{2}{}{%
        {{hash=c6f5faac1c3d2b360d72dcc625a6cf19}{%
           family={Fodor},
           familyi={F\bibinitperiod},
           given={Étienne},
           giveni={É\bibinitperiod}}}%
        {{hash=54fac0b3b8c6eb4cba37ede984bdb2fd}{%
           family={Marchetti},
           familyi={M\bibinitperiod},
           given={M\bibnamedelima Cristina},
           giveni={M\bibinitperiod\bibinitdelim C\bibinitperiod}}}%
      }
      \list{publisher}{1}{%
        {Elsevier}%
      }
      \strng{namehash}{3e10073f165be3c867f1b0e3dc4a3315}
      \strng{fullhash}{3e10073f165be3c867f1b0e3dc4a3315}
      \strng{bibnamehash}{3e10073f165be3c867f1b0e3dc4a3315}
      \strng{authorbibnamehash}{3e10073f165be3c867f1b0e3dc4a3315}
      \strng{authornamehash}{3e10073f165be3c867f1b0e3dc4a3315}
      \strng{authorfullhash}{3e10073f165be3c867f1b0e3dc4a3315}
      \field{sortinit}{2}
      \field{sortinithash}{8b555b3791beccb63322c22f3320aa9a}
      \field{labelnamesource}{author}
      \field{labeltitlesource}{title}
      \field{journaltitle}{Physica A: Statistical Mechanics and its Applications}
      \field{title}{The statistical physics of active matter: From self-catalytic colloids to living cells}
      \field{volume}{504}
      \field{year}{2018}
      \field{pages}{106\bibrangedash 120}
      \range{pages}{15}
    \endentry
    \entry{romanczuk2012active}{article}{}
      \name{author}{5}{}{%
        {{hash=da5649079d95a5f90ad98a1934a6ccd4}{%
           family={Romanczuk},
           familyi={R\bibinitperiod},
           given={Pawel},
           giveni={P\bibinitperiod}}}%
        {{hash=95161cf3229357ea8774eabc8c767ba0}{%
           family={Bär},
           familyi={B\bibinitperiod},
           given={Markus},
           giveni={M\bibinitperiod}}}%
        {{hash=88f3c9f8dec8d41de1a936423ae1cb06}{%
           family={Ebeling},
           familyi={E\bibinitperiod},
           given={Werner},
           giveni={W\bibinitperiod}}}%
        {{hash=abd97a473cbb49c6bb09d0307c8b0489}{%
           family={Lindner},
           familyi={L\bibinitperiod},
           given={Benjamin},
           giveni={B\bibinitperiod}}}%
        {{hash=81aa318e29bfede905e313792bc75518}{%
           family={Schimansky-Geier},
           familyi={S\bibinithyphendelim G\bibinitperiod},
           given={Lutz},
           giveni={L\bibinitperiod}}}%
      }
      \list{publisher}{1}{%
        {Springer}%
      }
      \strng{namehash}{e617b9f3ad4aeaa0026a08dcde150ba2}
      \strng{fullhash}{4519a170fcd32bbbcef067e7773e6d21}
      \strng{bibnamehash}{e617b9f3ad4aeaa0026a08dcde150ba2}
      \strng{authorbibnamehash}{e617b9f3ad4aeaa0026a08dcde150ba2}
      \strng{authornamehash}{e617b9f3ad4aeaa0026a08dcde150ba2}
      \strng{authorfullhash}{4519a170fcd32bbbcef067e7773e6d21}
      \field{sortinit}{2}
      \field{sortinithash}{8b555b3791beccb63322c22f3320aa9a}
      \field{labelnamesource}{author}
      \field{labeltitlesource}{title}
      \field{journaltitle}{The European Physical Journal Special Topics}
      \field{number}{1}
      \field{title}{Active brownian particles}
      \field{volume}{202}
      \field{year}{2012}
      \field{pages}{1\bibrangedash 162}
      \range{pages}{162}
    \endentry
    \entry{bechinger2016active}{article}{}
      \name{author}{6}{}{%
        {{hash=2a05122d02ffc6460593af3e887531d5}{%
           family={Bechinger},
           familyi={B\bibinitperiod},
           given={Clemens},
           giveni={C\bibinitperiod}}}%
        {{hash=4ab26608df19bbed2047b4689de3ea23}{%
           family={Di\bibnamedelima Leonardo},
           familyi={D\bibinitperiod\bibinitdelim L\bibinitperiod},
           given={Roberto},
           giveni={R\bibinitperiod}}}%
        {{hash=51f282463b35b3efe039d5a2e6aace93}{%
           family={Löwen},
           familyi={L\bibinitperiod},
           given={Hartmut},
           giveni={H\bibinitperiod}}}%
        {{hash=20e143226a20fb003c74cbb97af5624e}{%
           family={Reichhardt},
           familyi={R\bibinitperiod},
           given={Charles},
           giveni={C\bibinitperiod}}}%
        {{hash=7db5042f9200ce8f900b1391ceb83ca7}{%
           family={Volpe},
           familyi={V\bibinitperiod},
           given={Giorgio},
           giveni={G\bibinitperiod}}}%
        {{hash=1428577017aa20ae5b57b5c7895e901d}{%
           family={Volpe},
           familyi={V\bibinitperiod},
           given={Giovanni},
           giveni={G\bibinitperiod}}}%
      }
      \list{publisher}{1}{%
        {APS}%
      }
      \strng{namehash}{7a89ab2d0091b59a2f3c2a0ac4c39e4e}
      \strng{fullhash}{e593b8197a57f080f3c44031e482ae72}
      \strng{bibnamehash}{7a89ab2d0091b59a2f3c2a0ac4c39e4e}
      \strng{authorbibnamehash}{7a89ab2d0091b59a2f3c2a0ac4c39e4e}
      \strng{authornamehash}{7a89ab2d0091b59a2f3c2a0ac4c39e4e}
      \strng{authorfullhash}{e593b8197a57f080f3c44031e482ae72}
      \field{sortinit}{2}
      \field{sortinithash}{8b555b3791beccb63322c22f3320aa9a}
      \field{labelnamesource}{author}
      \field{labeltitlesource}{title}
      \field{journaltitle}{Reviews of Modern Physics}
      \field{number}{4}
      \field{title}{Active particles in complex and crowded environments}
      \field{volume}{88}
      \field{year}{2016}
      \field{pages}{045006}
      \range{pages}{1}
    \endentry
    \entry{lowen2020inertial}{article}{}
      \name{author}{1}{}{%
        {{hash=51f282463b35b3efe039d5a2e6aace93}{%
           family={Löwen},
           familyi={L\bibinitperiod},
           given={Hartmut},
           giveni={H\bibinitperiod}}}%
      }
      \list{publisher}{1}{%
        {AIP Publishing LLC}%
      }
      \strng{namehash}{51f282463b35b3efe039d5a2e6aace93}
      \strng{fullhash}{51f282463b35b3efe039d5a2e6aace93}
      \strng{bibnamehash}{51f282463b35b3efe039d5a2e6aace93}
      \strng{authorbibnamehash}{51f282463b35b3efe039d5a2e6aace93}
      \strng{authornamehash}{51f282463b35b3efe039d5a2e6aace93}
      \strng{authorfullhash}{51f282463b35b3efe039d5a2e6aace93}
      \field{sortinit}{2}
      \field{sortinithash}{8b555b3791beccb63322c22f3320aa9a}
      \field{labelnamesource}{author}
      \field{labeltitlesource}{title}
      \field{journaltitle}{The Journal of Chemical Physics}
      \field{number}{4}
      \field{title}{Inertial effects of self-propelled particles: From active Brownian to active Langevin motion}
      \field{volume}{152}
      \field{year}{2020}
      \field{pages}{040901}
      \range{pages}{1}
    \endentry
    \entry{la2019cell}{book}{}
      \name{author}{2}{}{%
        {{hash=3b1b5f4d00cd0700c15f05a07b7dcaba}{%
           family={La\bibnamedelima Porta},
           familyi={L\bibinitperiod\bibinitdelim P\bibinitperiod},
           given={Caterina\bibnamedelima AM},
           giveni={C\bibinitperiod\bibinitdelim A\bibinitperiod}}}%
        {{hash=3b17474b046454bcce9fd5a3a9464134}{%
           family={Zapperi},
           familyi={Z\bibinitperiod},
           given={Stefano},
           giveni={S\bibinitperiod}}}%
      }
      \list{publisher}{1}{%
        {Springer}%
      }
      \strng{namehash}{f013ba0b17c669ec37883832b4cfb633}
      \strng{fullhash}{f013ba0b17c669ec37883832b4cfb633}
      \strng{bibnamehash}{f013ba0b17c669ec37883832b4cfb633}
      \strng{authorbibnamehash}{f013ba0b17c669ec37883832b4cfb633}
      \strng{authornamehash}{f013ba0b17c669ec37883832b4cfb633}
      \strng{authorfullhash}{f013ba0b17c669ec37883832b4cfb633}
      \field{sortinit}{3}
      \field{sortinithash}{ad6fe7482ffbd7b9f99c9e8b5dccd3d7}
      \field{labelnamesource}{author}
      \field{labeltitlesource}{title}
      \field{title}{Cell Migrations: Causes and Functions}
      \field{volume}{1146}
      \field{year}{2019}
    \endentry
    \entry{ziebert2016macroscopic}{incollection}{}
      \name{author}{3}{}{%
        {{hash=4afca1b46252d29bb22f7fb02638f9f7}{%
           family={Ziebert},
           familyi={Z\bibinitperiod},
           given={Falko},
           giveni={F\bibinitperiod}}}%
        {{hash=c9a6ee7318e673e8bc4f86b7598bb3ae}{%
           family={Löber},
           familyi={L\bibinitperiod},
           given={Jakob},
           giveni={J\bibinitperiod}}}%
        {{hash=707def2f1a9a48b2c134250523bfe4f4}{%
           family={Aranson},
           familyi={A\bibinitperiod},
           given={Igor\bibnamedelima S},
           giveni={I\bibinitperiod\bibinitdelim S\bibinitperiod}}}%
      }
      \list{publisher}{1}{%
        {Springer}%
      }
      \strng{namehash}{73758273d578b4396531203793c5bb54}
      \strng{fullhash}{73758273d578b4396531203793c5bb54}
      \strng{bibnamehash}{73758273d578b4396531203793c5bb54}
      \strng{authorbibnamehash}{73758273d578b4396531203793c5bb54}
      \strng{authornamehash}{73758273d578b4396531203793c5bb54}
      \strng{authorfullhash}{73758273d578b4396531203793c5bb54}
      \field{sortinit}{3}
      \field{sortinithash}{ad6fe7482ffbd7b9f99c9e8b5dccd3d7}
      \field{labelnamesource}{author}
      \field{labeltitlesource}{title}
      \field{booktitle}{Physical Models of Cell Motility}
      \field{title}{Macroscopic model of substrate-based cell motility}
      \field{year}{2016}
      \field{pages}{1\bibrangedash 67}
      \range{pages}{67}
    \endentry
    \entry{basu2018active}{article}{}
      \name{author}{4}{}{%
        {{hash=44c0c88be78e2943d6949eb0da09058c}{%
           family={Basu},
           familyi={B\bibinitperiod},
           given={Urna},
           giveni={U\bibinitperiod}}}%
        {{hash=3ca66bf2b29a25eeda2342254323889e}{%
           family={Majumdar},
           familyi={M\bibinitperiod},
           given={Satya\bibnamedelima N},
           giveni={S\bibinitperiod\bibinitdelim N\bibinitperiod}}}%
        {{hash=66ca57419cc846e204c129c46d9965e9}{%
           family={Rosso},
           familyi={R\bibinitperiod},
           given={Alberto},
           giveni={A\bibinitperiod}}}%
        {{hash=6eac61d3c378dcc8d60bf8d3026c9b59}{%
           family={Schehr},
           familyi={S\bibinitperiod},
           given={Grégory},
           giveni={G\bibinitperiod}}}%
      }
      \list{publisher}{1}{%
        {APS}%
      }
      \strng{namehash}{209e974d64f8ebe4d4a0c315818e2339}
      \strng{fullhash}{f2d05d0f17a28622ab0c14947b908e0d}
      \strng{bibnamehash}{209e974d64f8ebe4d4a0c315818e2339}
      \strng{authorbibnamehash}{209e974d64f8ebe4d4a0c315818e2339}
      \strng{authornamehash}{209e974d64f8ebe4d4a0c315818e2339}
      \strng{authorfullhash}{f2d05d0f17a28622ab0c14947b908e0d}
      \field{sortinit}{3}
      \field{sortinithash}{ad6fe7482ffbd7b9f99c9e8b5dccd3d7}
      \field{labelnamesource}{author}
      \field{labeltitlesource}{title}
      \field{journaltitle}{Physical Review E}
      \field{number}{6}
      \field{title}{Active Brownian motion in two dimensions}
      \field{volume}{98}
      \field{year}{2018}
      \field{pages}{062121}
      \range{pages}{1}
    \endentry
    \entry{dieterich2008anomalous}{article}{}
      \name{author}{4}{}{%
        {{hash=529bf57f819d260530a473aeeb1c905f}{%
           family={Dieterich},
           familyi={D\bibinitperiod},
           given={Peter},
           giveni={P\bibinitperiod}}}%
        {{hash=63d3450d82f71f3f54570377f9e36647}{%
           family={Klages},
           familyi={K\bibinitperiod},
           given={Rainer},
           giveni={R\bibinitperiod}}}%
        {{hash=59d0ab96de4e7b22576f1c583638b597}{%
           family={Preuss},
           familyi={P\bibinitperiod},
           given={Roland},
           giveni={R\bibinitperiod}}}%
        {{hash=804529042ecfb2f58fb3be24e915fb57}{%
           family={Schwab},
           familyi={S\bibinitperiod},
           given={Albrecht},
           giveni={A\bibinitperiod}}}%
      }
      \list{publisher}{1}{%
        {National Acad Sciences}%
      }
      \strng{namehash}{7193d1162be52cf3462d89c82b2bcf7e}
      \strng{fullhash}{0a27b54d410acfa083baba263ab10ff8}
      \strng{bibnamehash}{7193d1162be52cf3462d89c82b2bcf7e}
      \strng{authorbibnamehash}{7193d1162be52cf3462d89c82b2bcf7e}
      \strng{authornamehash}{7193d1162be52cf3462d89c82b2bcf7e}
      \strng{authorfullhash}{0a27b54d410acfa083baba263ab10ff8}
      \field{sortinit}{3}
      \field{sortinithash}{ad6fe7482ffbd7b9f99c9e8b5dccd3d7}
      \field{labelnamesource}{author}
      \field{labeltitlesource}{title}
      \field{journaltitle}{Proceedings of the National Academy of Sciences}
      \field{number}{2}
      \field{title}{Anomalous dynamics of cell migration}
      \field{volume}{105}
      \field{year}{2008}
      \field{pages}{459\bibrangedash 463}
      \range{pages}{5}
    \endentry
    \entry{vicsek2012collective}{article}{}
      \name{author}{2}{}{%
        {{hash=6ff33ab4371a3804415d624c6171ef14}{%
           family={Vicsek},
           familyi={V\bibinitperiod},
           given={Tamás},
           giveni={T\bibinitperiod}}}%
        {{hash=4af59bdb097e3088c137805dc385d822}{%
           family={Zafeiris},
           familyi={Z\bibinitperiod},
           given={Anna},
           giveni={A\bibinitperiod}}}%
      }
      \list{publisher}{1}{%
        {Elsevier}%
      }
      \strng{namehash}{7d947b0edcc4cab3d97f5acc3953665f}
      \strng{fullhash}{7d947b0edcc4cab3d97f5acc3953665f}
      \strng{bibnamehash}{7d947b0edcc4cab3d97f5acc3953665f}
      \strng{authorbibnamehash}{7d947b0edcc4cab3d97f5acc3953665f}
      \strng{authornamehash}{7d947b0edcc4cab3d97f5acc3953665f}
      \strng{authorfullhash}{7d947b0edcc4cab3d97f5acc3953665f}
      \field{sortinit}{4}
      \field{sortinithash}{9381316451d1b9788675a07e972a12a7}
      \field{labelnamesource}{author}
      \field{labeltitlesource}{title}
      \field{journaltitle}{Physics reports}
      \field{number}{3-4}
      \field{title}{Collective motion}
      \field{volume}{517}
      \field{year}{2012}
      \field{pages}{71\bibrangedash 140}
      \range{pages}{70}
    \endentry
    \entry{shaebani2020computational}{article}{}
      \name{author}{5}{}{%
        {{hash=b4d7c61552f1018ab10ab4054fb38adf}{%
           family={Shaebani},
           familyi={S\bibinitperiod},
           given={M\bibnamedelima Reza},
           giveni={M\bibinitperiod\bibinitdelim R\bibinitperiod}}}%
        {{hash=a2c13d075081aad4fb47a5c98b1d08d5}{%
           family={Wysocki},
           familyi={W\bibinitperiod},
           given={Adam},
           giveni={A\bibinitperiod}}}%
        {{hash=b44a54aa56bce06227dc5cef9b5d89ea}{%
           family={Winkler},
           familyi={W\bibinitperiod},
           given={Roland\bibnamedelima G},
           giveni={R\bibinitperiod\bibinitdelim G\bibinitperiod}}}%
        {{hash=cb67f1d3358b3f7e3a8421bbf2738176}{%
           family={Gompper},
           familyi={G\bibinitperiod},
           given={Gerhard},
           giveni={G\bibinitperiod}}}%
        {{hash=556c67d6b802272d070dbbc78efdf5a6}{%
           family={Rieger},
           familyi={R\bibinitperiod},
           given={Heiko},
           giveni={H\bibinitperiod}}}%
      }
      \list{publisher}{1}{%
        {Nature Publishing Group}%
      }
      \strng{namehash}{141f771662eb1594fcd730387204bdc1}
      \strng{fullhash}{40f954e4571e315d17abbbdcf29e480c}
      \strng{bibnamehash}{141f771662eb1594fcd730387204bdc1}
      \strng{authorbibnamehash}{141f771662eb1594fcd730387204bdc1}
      \strng{authornamehash}{141f771662eb1594fcd730387204bdc1}
      \strng{authorfullhash}{40f954e4571e315d17abbbdcf29e480c}
      \field{sortinit}{4}
      \field{sortinithash}{9381316451d1b9788675a07e972a12a7}
      \field{labelnamesource}{author}
      \field{labeltitlesource}{title}
      \field{journaltitle}{Nature Reviews Physics}
      \field{title}{Computational models for active matter}
      \field{year}{2020}
      \field{pages}{1\bibrangedash 19}
      \range{pages}{19}
    \endentry
    \entry{chate2008collective}{article}{}
      \name{author}{4}{}{%
        {{hash=ddff0cfe0b9f563ce44bfbe77825d94a}{%
           family={Chaté},
           familyi={C\bibinitperiod},
           given={Hugues},
           giveni={H\bibinitperiod}}}%
        {{hash=944dbe6f052dd8e5879ece1e9d88efa4}{%
           family={Ginelli},
           familyi={G\bibinitperiod},
           given={Francesco},
           giveni={F\bibinitperiod}}}%
        {{hash=6b57cad0d2b8aabd09c13b3d1593ff1a}{%
           family={Grégoire},
           familyi={G\bibinitperiod},
           given={Guillaume},
           giveni={G\bibinitperiod}}}%
        {{hash=8a77db1111a15de1c82fec0e30ca9b4d}{%
           family={Raynaud},
           familyi={R\bibinitperiod},
           given={Franck},
           giveni={F\bibinitperiod}}}%
      }
      \list{publisher}{1}{%
        {APS}%
      }
      \strng{namehash}{df116bd5adf4246c57e39dca14839890}
      \strng{fullhash}{5e06393719ff231034aa88496ebba6b3}
      \strng{bibnamehash}{df116bd5adf4246c57e39dca14839890}
      \strng{authorbibnamehash}{df116bd5adf4246c57e39dca14839890}
      \strng{authornamehash}{df116bd5adf4246c57e39dca14839890}
      \strng{authorfullhash}{5e06393719ff231034aa88496ebba6b3}
      \field{sortinit}{4}
      \field{sortinithash}{9381316451d1b9788675a07e972a12a7}
      \field{labelnamesource}{author}
      \field{labeltitlesource}{title}
      \field{journaltitle}{Physical Review E}
      \field{number}{4}
      \field{title}{Collective motion of self-propelled particles interacting without cohesion}
      \field{volume}{77}
      \field{year}{2008}
      \field{pages}{046113}
      \range{pages}{1}
    \endentry
    \entry{nagy2007new}{article}{}
      \name{author}{3}{}{%
        {{hash=9b54ccf3d4e1f421ab53407c9be833d5}{%
           family={Nagy},
           familyi={N\bibinitperiod},
           given={Máté},
           giveni={M\bibinitperiod}}}%
        {{hash=051481fd4301c9967e83b499205ccab0}{%
           family={Daruka},
           familyi={D\bibinitperiod},
           given={István},
           giveni={I\bibinitperiod}}}%
        {{hash=6ff33ab4371a3804415d624c6171ef14}{%
           family={Vicsek},
           familyi={V\bibinitperiod},
           given={Tamás},
           giveni={T\bibinitperiod}}}%
      }
      \list{publisher}{1}{%
        {Elsevier}%
      }
      \strng{namehash}{ee0b01eaf22ab42e6bc604d0dc05dfa9}
      \strng{fullhash}{ee0b01eaf22ab42e6bc604d0dc05dfa9}
      \strng{bibnamehash}{ee0b01eaf22ab42e6bc604d0dc05dfa9}
      \strng{authorbibnamehash}{ee0b01eaf22ab42e6bc604d0dc05dfa9}
      \strng{authornamehash}{ee0b01eaf22ab42e6bc604d0dc05dfa9}
      \strng{authorfullhash}{ee0b01eaf22ab42e6bc604d0dc05dfa9}
      \field{sortinit}{4}
      \field{sortinithash}{9381316451d1b9788675a07e972a12a7}
      \field{labelnamesource}{author}
      \field{labeltitlesource}{title}
      \field{journaltitle}{Physica A: Statistical Mechanics and its Applications}
      \field{title}{New aspects of the continuous phase transition in the scalar noise model (SNM) of collective motion}
      \field{volume}{373}
      \field{year}{2007}
      \field{pages}{445\bibrangedash 454}
      \range{pages}{10}
    \endentry
    \entry{martin2018collective}{article}{}
      \name{author}{4}{}{%
        {{hash=19547ed345067c36ff20c93efc90e4ea}{%
           family={Martı́n-Gómez},
           familyi={M\bibinithyphendelim G\bibinitperiod},
           given={Aitor},
           giveni={A\bibinitperiod}}}%
        {{hash=2acd4905ec6c76c2422688b7836d67e1}{%
           family={Levis},
           familyi={L\bibinitperiod},
           given={Demian},
           giveni={D\bibinitperiod}}}%
        {{hash=8c3f9ba14f8f5ad4a38490c11efbe47b}{%
           family={Dı́az-Guilera},
           familyi={D\bibinithyphendelim G\bibinitperiod},
           given={Albert},
           giveni={A\bibinitperiod}}}%
        {{hash=fc8c69b1a4b1108b956bc3f8edc6d836}{%
           family={Pagonabarraga},
           familyi={P\bibinitperiod},
           given={Ignacio},
           giveni={I\bibinitperiod}}}%
      }
      \list{publisher}{1}{%
        {Royal Society of Chemistry}%
      }
      \strng{namehash}{b25b33ac82650f3ec84fa713c97a9d5a}
      \strng{fullhash}{f26db031761607c8ae8e6dca2f9918b9}
      \strng{bibnamehash}{b25b33ac82650f3ec84fa713c97a9d5a}
      \strng{authorbibnamehash}{b25b33ac82650f3ec84fa713c97a9d5a}
      \strng{authornamehash}{b25b33ac82650f3ec84fa713c97a9d5a}
      \strng{authorfullhash}{f26db031761607c8ae8e6dca2f9918b9}
      \field{sortinit}{6}
      \field{sortinithash}{b33bc299efb3c36abec520a4c896a66d}
      \field{labelnamesource}{author}
      \field{labeltitlesource}{title}
      \field{journaltitle}{Soft matter}
      \field{number}{14}
      \field{title}{Collective motion of active Brownian particles with polar alignment}
      \field{volume}{14}
      \field{year}{2018}
      \field{pages}{2610\bibrangedash 2618}
      \range{pages}{9}
    \endentry
  \enddatalist
  \missing{PhysRevLett.121.248003}
  \missing{PhysRevX.6.021011}
  \missing{purcell1977life}
  \missing{sarkar2021minimal}
  \missing{szabo}
\endrefsection
\endinput

